EESchema Schematic File Version 2
LIBS:power
LIBS:device
LIBS:transistors
LIBS:conn
LIBS:linear
LIBS:regul
LIBS:74xx
LIBS:cmos4000
LIBS:adc-dac
LIBS:memory
LIBS:xilinx
LIBS:microcontrollers
LIBS:dsp
LIBS:microchip
LIBS:analog_switches
LIBS:motorola
LIBS:texas
LIBS:intel
LIBS:audio
LIBS:interface
LIBS:digital-audio
LIBS:philips
LIBS:display
LIBS:cypress
LIBS:siliconi
LIBS:opto
LIBS:atmel
LIBS:contrib
LIBS:valves
LIBS:ferrite
LIBS:conn_22x2
LIBS:MagnavoxOdyssey1-cache
EELAYER 25 0
EELAYER END
$Descr A4 11693 8268
encoding utf-8
Sheet 12 12
Title ""
Date ""
Rev ""
Comp ""
Comment1 ""
Comment2 ""
Comment3 ""
Comment4 ""
$EndDescr
Text Notes 4750 2050 0    197  ~ 0
GATE MATRIX
Text Notes 5150 2250 0    118  ~ 0
703495-2
Text HLabel 2850 3600 0    60   Input ~ 0
(10)
Text HLabel 2850 4100 0    60   Input ~ 0
(2)
Text HLabel 2850 4600 0    60   Input ~ 0
(9)
Text HLabel 2850 5100 0    60   Input ~ 0
(1)
$Comp
L R 11_R4
U 1 1 5892365E
P 3400 3600
F 0 "11_R4" V 3215 3600 40  0000 C CNN
F 1 "10k" V 3291 3600 40  0000 C CNN
F 2 "" V 3330 3600 30  0000 C CNN
F 3 "" H 3400 3600 30  0000 C CNN
	1    3400 3600
	0    1    1    0   
$EndComp
$Comp
L R 11_R3
U 1 1 58923683
P 3400 4100
F 0 "11_R3" V 3215 4100 40  0000 C CNN
F 1 "10k" V 3291 4100 40  0000 C CNN
F 2 "" V 3330 4100 30  0000 C CNN
F 3 "" H 3400 4100 30  0000 C CNN
	1    3400 4100
	0    1    1    0   
$EndComp
$Comp
L R 11_R2
U 1 1 589236A9
P 3400 4600
F 0 "11_R2" V 3215 4600 40  0000 C CNN
F 1 "10k" V 3291 4600 40  0000 C CNN
F 2 "" V 3330 4600 30  0000 C CNN
F 3 "" H 3400 4600 30  0000 C CNN
	1    3400 4600
	0    1    1    0   
$EndComp
$Comp
L R 11_R1
U 1 1 589236F1
P 3400 5100
F 0 "11_R1" V 3215 5100 40  0000 C CNN
F 1 "10k" V 3291 5100 40  0000 C CNN
F 2 "" V 3330 5100 30  0000 C CNN
F 3 "" H 3400 5100 30  0000 C CNN
	1    3400 5100
	0    1    1    0   
$EndComp
$Comp
L DIODE 11_D4
U 1 1 5892376D
P 4300 3600
F 0 "11_D4" H 4300 3408 40  0000 C CNN
F 1 "DIODE" H 4300 3484 40  0000 C CNN
F 2 "" H 4300 3600 60  0000 C CNN
F 3 "" H 4300 3600 60  0000 C CNN
	1    4300 3600
	-1   0    0    1   
$EndComp
$Comp
L DIODE 11_D3
U 1 1 589237C6
P 4300 4100
F 0 "11_D3" H 4300 3908 40  0000 C CNN
F 1 "DIODE" H 4300 3984 40  0000 C CNN
F 2 "" H 4300 4100 60  0000 C CNN
F 3 "" H 4300 4100 60  0000 C CNN
	1    4300 4100
	-1   0    0    1   
$EndComp
$Comp
L DIODE 11_D2
U 1 1 589237FC
P 4300 4600
F 0 "11_D2" H 4300 4408 40  0000 C CNN
F 1 "DIODE" H 4300 4484 40  0000 C CNN
F 2 "" H 4300 4600 60  0000 C CNN
F 3 "" H 4300 4600 60  0000 C CNN
	1    4300 4600
	-1   0    0    1   
$EndComp
$Comp
L DIODE 11_D1
U 1 1 5892385F
P 4300 5100
F 0 "11_D1" H 4300 4908 40  0000 C CNN
F 1 "DIODE" H 4300 4984 40  0000 C CNN
F 2 "" H 4300 5100 60  0000 C CNN
F 3 "" H 4300 5100 60  0000 C CNN
	1    4300 5100
	-1   0    0    1   
$EndComp
Text HLabel 4750 5750 3    60   Input ~ 0
(3)
Text HLabel 5250 5750 3    60   Input ~ 0
(7)
Text HLabel 6050 5750 3    60   Input ~ 0
(4)
$Comp
L R 11_R6
U 1 1 58923A54
P 6050 3750
F 0 "11_R6" H 5980 3712 40  0000 R CNN
F 1 "4,7k" H 5980 3788 40  0000 R CNN
F 2 "" V 5980 3750 30  0000 C CNN
F 3 "" H 6050 3750 30  0000 C CNN
	1    6050 3750
	1    0    0    1   
$EndComp
$Comp
L R 11_R7
U 1 1 58923A5A
P 6550 3750
F 0 "11_R7" H 6480 3712 40  0000 R CNN
F 1 "4,7k" H 6480 3788 40  0000 R CNN
F 2 "" V 6480 3750 30  0000 C CNN
F 3 "" H 6550 3750 30  0000 C CNN
	1    6550 3750
	1    0    0    1   
$EndComp
$Comp
L R 11_R5
U 1 1 58923A60
P 7050 3750
F 0 "11_R5" H 6980 3712 40  0000 R CNN
F 1 "4,7k" H 6980 3788 40  0000 R CNN
F 2 "" V 6980 3750 30  0000 C CNN
F 3 "" H 7050 3750 30  0000 C CNN
	1    7050 3750
	1    0    0    1   
$EndComp
$Comp
L DIODE 11_D6
U 1 1 58923A69
P 6050 5100
F 0 "11_D6" V 6012 5022 40  0000 R CNN
F 1 "DIODE" V 6088 5022 40  0000 R CNN
F 2 "" H 6050 5100 60  0000 C CNN
F 3 "" H 6050 5100 60  0000 C CNN
	1    6050 5100
	0    -1   1    0   
$EndComp
$Comp
L DIODE 11_D7
U 1 1 58923A6F
P 6550 5100
F 0 "11_D7" V 6512 5022 40  0000 R CNN
F 1 "DIODE" V 6588 5022 40  0000 R CNN
F 2 "" H 6550 5100 60  0000 C CNN
F 3 "" H 6550 5100 60  0000 C CNN
	1    6550 5100
	0    -1   1    0   
$EndComp
$Comp
L DIODE 11_D5
U 1 1 58923A75
P 7050 5100
F 0 "11_D5" V 7012 5022 40  0000 R CNN
F 1 "DIODE" V 7088 5022 40  0000 R CNN
F 2 "" H 7050 5100 60  0000 C CNN
F 3 "" H 7050 5100 60  0000 C CNN
	1    7050 5100
	0    -1   1    0   
$EndComp
$Comp
L DIODE 11_D8
U 1 1 58924108
P 7600 3700
F 0 "11_D8" V 7638 3778 40  0000 L CNN
F 1 "DIODE" V 7562 3778 40  0000 L CNN
F 2 "" H 7600 3700 60  0000 C CNN
F 3 "" H 7600 3700 60  0000 C CNN
	1    7600 3700
	0    1    -1   0   
$EndComp
$Comp
L DIODE 11_D9
U 1 1 589241B5
P 7950 4100
F 0 "11_D9" H 7950 3908 40  0000 C CNN
F 1 "DIODE" H 7950 3984 40  0000 C CNN
F 2 "" H 7950 4100 60  0000 C CNN
F 3 "" H 7950 4100 60  0000 C CNN
	1    7950 4100
	1    0    0    1   
$EndComp
Text HLabel 8350 4100 2    60   Input ~ 0
(5)
Text HLabel 8350 3350 2    60   Input ~ 0
(6)
Text HLabel 7600 2850 1    60   Input ~ 0
(8)
Wire Wire Line
	3150 5100 2850 5100
Wire Wire Line
	2850 4600 3150 4600
Wire Wire Line
	2850 3600 3150 3600
Wire Wire Line
	3150 4100 2850 4100
Wire Wire Line
	7050 3350 7050 3500
Wire Wire Line
	6550 3350 6550 3500
Wire Wire Line
	6050 3500 6050 3350
Wire Wire Line
	6050 4000 6050 4900
Wire Wire Line
	6050 5300 6050 5750
Wire Wire Line
	6050 5500 7050 5500
Wire Wire Line
	6550 5500 6550 5300
Connection ~ 6050 5500
Wire Wire Line
	7050 5500 7050 5300
Connection ~ 6550 5500
Wire Wire Line
	7050 4000 7050 4900
Wire Wire Line
	6550 4900 6550 4000
Wire Wire Line
	4750 4100 4750 5750
Wire Wire Line
	4750 5100 4500 5100
Wire Wire Line
	4500 4100 7750 4100
Connection ~ 4750 5100
Wire Wire Line
	5250 3600 5250 5750
Wire Wire Line
	4500 4600 6050 4600
Wire Wire Line
	4500 3600 5250 3600
Connection ~ 5250 4600
Connection ~ 6050 4600
Wire Wire Line
	4100 5100 3650 5100
Wire Wire Line
	3650 4600 4100 4600
Wire Wire Line
	4100 4100 3650 4100
Wire Wire Line
	3650 3600 4100 3600
Connection ~ 7050 4100
Connection ~ 4750 4100
Wire Wire Line
	7600 3900 7600 4100
Connection ~ 7600 4100
Wire Wire Line
	7600 3500 7600 2850
Wire Wire Line
	6050 3350 8350 3350
Connection ~ 6550 3350
Connection ~ 7050 3350
Wire Wire Line
	8350 4100 8150 4100
Wire Notes Line
	2300 1350 8850 1350
Wire Notes Line
	8850 1350 8850 6250
Wire Notes Line
	8850 6250 2300 6250
Wire Notes Line
	2300 6250 2300 1350
$EndSCHEMATC
