EESchema Schematic File Version 2
LIBS:power
LIBS:device
LIBS:transistors
LIBS:conn
LIBS:linear
LIBS:regul
LIBS:74xx
LIBS:cmos4000
LIBS:adc-dac
LIBS:memory
LIBS:xilinx
LIBS:microcontrollers
LIBS:dsp
LIBS:microchip
LIBS:analog_switches
LIBS:motorola
LIBS:texas
LIBS:intel
LIBS:audio
LIBS:interface
LIBS:digital-audio
LIBS:philips
LIBS:display
LIBS:cypress
LIBS:siliconi
LIBS:opto
LIBS:atmel
LIBS:contrib
LIBS:valves
LIBS:ferrite
LIBS:conn_22x2
LIBS:MagnavoxOdyssey1-cache
EELAYER 25 0
EELAYER END
$Descr A4 11693 8268
encoding utf-8
Sheet 3 12
Title ""
Date ""
Rev ""
Comp ""
Comment1 ""
Comment2 ""
Comment3 ""
Comment4 ""
$EndDescr
Text HLabel 7400 5050 2    60   Output ~ 0
(10)_OUT
Text HLabel 7400 3900 2    60   Input ~ 0
(7)_HORIZONTAL_SYNC_IN
Text HLabel 7400 2850 2    60   Input ~ 0
(8)_VERTICAL_SYNC_IN
Text HLabel 3850 2850 0    60   Input ~ 0
(2)_PLAYER1_INPUT
Text HLabel 3850 3150 0    60   Input ~ 0
(1)
Text HLabel 3850 4200 0    60   Input ~ 0
(3)
Text HLabel 3850 3900 0    60   Input ~ 0
(4)_PLAYER2_INPUT
Text HLabel 3850 5050 0    60   Input ~ 0
(5)_BALL_INPUT
Text HLabel 3850 5800 0    60   Input ~ 0
(6)_WALL_INPUT
$Comp
L R 12_R4
U 1 1 588D81FC
P 4900 2850
F 0 "12_R4" V 4715 2850 40  0000 C CNN
F 1 "R" V 4791 2850 40  0000 C CNN
F 2 "" V 4830 2850 30  0000 C CNN
F 3 "" H 4900 2850 30  0000 C CNN
	1    4900 2850
	0    1    1    0   
$EndComp
$Comp
L DIODE 12_D1
U 1 1 588D825B
P 5550 2850
F 0 "12_D1" H 5550 3042 40  0000 C CNN
F 1 "DIODE" H 5550 2966 40  0000 C CNN
F 2 "" H 5550 2850 60  0000 C CNN
F 3 "" H 5550 2850 60  0000 C CNN
	1    5550 2850
	1    0    0    -1  
$EndComp
$Comp
L DIODE 12_D8
U 1 1 588D829D
P 6150 2850
F 0 "12_D8" H 6150 3042 40  0000 C CNN
F 1 "DIODE" H 6150 2966 40  0000 C CNN
F 2 "" H 6150 2850 60  0000 C CNN
F 3 "" H 6150 2850 60  0000 C CNN
	1    6150 2850
	1    0    0    -1  
$EndComp
$Comp
L DIODE 12_D2
U 1 1 588D82E2
P 4200 3150
F 0 "12_D2" H 4200 3342 40  0000 C CNN
F 1 "DIODE" H 4200 3266 40  0000 C CNN
F 2 "" H 4200 3150 60  0000 C CNN
F 3 "" H 4200 3150 60  0000 C CNN
	1    4200 3150
	1    0    0    -1  
$EndComp
Wire Wire Line
	3850 2850 4650 2850
Wire Wire Line
	4400 3150 4550 3150
Wire Wire Line
	4550 3150 4550 2850
Connection ~ 4550 2850
Wire Wire Line
	4000 3150 3850 3150
Wire Wire Line
	5150 2850 5350 2850
Wire Wire Line
	5750 2850 5950 2850
Wire Wire Line
	6350 2850 7400 2850
$Comp
L R 12_R5
U 1 1 588D84A4
P 4900 3900
F 0 "12_R5" V 4715 3900 40  0000 C CNN
F 1 "R" V 4791 3900 40  0000 C CNN
F 2 "" V 4830 3900 30  0000 C CNN
F 3 "" H 4900 3900 30  0000 C CNN
	1    4900 3900
	0    1    1    0   
$EndComp
$Comp
L DIODE 12_D3
U 1 1 588D84AA
P 5550 3900
F 0 "12_D3" H 5550 4092 40  0000 C CNN
F 1 "DIODE" H 5550 4016 40  0000 C CNN
F 2 "" H 5550 3900 60  0000 C CNN
F 3 "" H 5550 3900 60  0000 C CNN
	1    5550 3900
	1    0    0    -1  
$EndComp
$Comp
L DIODE 12_D7
U 1 1 588D84B0
P 6150 3900
F 0 "12_D7" H 6150 4092 40  0000 C CNN
F 1 "DIODE" H 6150 4016 40  0000 C CNN
F 2 "" H 6150 3900 60  0000 C CNN
F 3 "" H 6150 3900 60  0000 C CNN
	1    6150 3900
	1    0    0    -1  
$EndComp
$Comp
L DIODE 12_D4
U 1 1 588D84B6
P 4200 4200
F 0 "12_D4" H 4200 4392 40  0000 C CNN
F 1 "DIODE" H 4200 4316 40  0000 C CNN
F 2 "" H 4200 4200 60  0000 C CNN
F 3 "" H 4200 4200 60  0000 C CNN
	1    4200 4200
	1    0    0    -1  
$EndComp
Wire Wire Line
	3850 3900 4650 3900
Wire Wire Line
	4400 4200 4550 4200
Wire Wire Line
	4550 4200 4550 3900
Connection ~ 4550 3900
Wire Wire Line
	4000 4200 3850 4200
Wire Wire Line
	5150 3900 5350 3900
Wire Wire Line
	5750 3900 5950 3900
Wire Wire Line
	6350 3900 7400 3900
$Comp
L R 12_R6
U 1 1 588D85D0
P 4900 5050
F 0 "12_R6" V 4715 5050 40  0000 C CNN
F 1 "R" V 4791 5050 40  0000 C CNN
F 2 "" V 4830 5050 30  0000 C CNN
F 3 "" H 4900 5050 30  0000 C CNN
	1    4900 5050
	0    1    1    0   
$EndComp
$Comp
L DIODE 12_D5
U 1 1 588D85D6
P 5550 5050
F 0 "12_D5" H 5550 5242 40  0000 C CNN
F 1 "DIODE" H 5550 5166 40  0000 C CNN
F 2 "" H 5550 5050 60  0000 C CNN
F 3 "" H 5550 5050 60  0000 C CNN
	1    5550 5050
	1    0    0    -1  
$EndComp
Wire Wire Line
	3850 5050 4650 5050
Wire Wire Line
	5150 5050 5350 5050
Wire Wire Line
	5750 5050 5950 5050
$Comp
L R 12_R1
U 1 1 588D8613
P 6200 5050
F 0 "12_R1" V 6015 5050 40  0000 C CNN
F 1 "820" V 6091 5050 40  0000 C CNN
F 2 "" V 6130 5050 30  0000 C CNN
F 3 "" H 6200 5050 30  0000 C CNN
	1    6200 5050
	0    1    1    0   
$EndComp
Wire Wire Line
	6450 5050 7400 5050
$Comp
L R 12_R7
U 1 1 588D8763
P 4900 5800
F 0 "12_R7" V 4715 5800 40  0000 C CNN
F 1 "R" V 4791 5800 40  0000 C CNN
F 2 "" V 4830 5800 30  0000 C CNN
F 3 "" H 4900 5800 30  0000 C CNN
	1    4900 5800
	0    1    1    0   
$EndComp
$Comp
L DIODE 12_D6
U 1 1 588D8769
P 5550 5800
F 0 "12_D6" H 5550 5992 40  0000 C CNN
F 1 "DIODE" H 5550 5916 40  0000 C CNN
F 2 "" H 5550 5800 60  0000 C CNN
F 3 "" H 5550 5800 60  0000 C CNN
	1    5550 5800
	1    0    0    -1  
$EndComp
Wire Wire Line
	3850 5800 4650 5800
Wire Wire Line
	5150 5800 5350 5800
Wire Wire Line
	5850 5800 5750 5800
Wire Wire Line
	5850 2850 5850 5800
Connection ~ 5850 5050
Connection ~ 5850 3900
Connection ~ 5850 2850
$Comp
L R 12_R2
U 1 1 588D88DE
P 6600 3350
F 0 "12_R2" H 6529 3312 40  0000 R CNN
F 1 "27k" H 6529 3388 40  0000 R CNN
F 2 "" V 6530 3350 30  0000 C CNN
F 3 "" H 6600 3350 30  0000 C CNN
	1    6600 3350
	-1   0    0    1   
$EndComp
$Comp
L R 12_R3
U 1 1 588D8D06
P 7000 4550
F 0 "12_R3" H 6929 4512 40  0000 R CNN
F 1 "18k" H 6929 4588 40  0000 R CNN
F 2 "" V 6930 4550 30  0000 C CNN
F 3 "" H 7000 4550 30  0000 C CNN
	1    7000 4550
	-1   0    0    1   
$EndComp
Wire Wire Line
	6600 3100 6600 2850
Connection ~ 6600 2850
Wire Wire Line
	6600 3600 6600 5050
Connection ~ 6600 5050
Wire Wire Line
	7000 4800 7000 5050
Connection ~ 7000 5050
Wire Wire Line
	7000 4300 7000 3900
Connection ~ 7000 3900
Text Notes 4750 1550 0    236  ~ 0
SUMMER 
Text Notes 5050 1800 0    118  ~ 0
703496-2
Wire Notes Line
	2550 6250 2550 950 
Wire Notes Line
	2550 950  9150 950 
Wire Notes Line
	9150 950  9150 6250
Wire Notes Line
	9150 6250 2550 6250
$EndSCHEMATC
