EESchema Schematic File Version 2
LIBS:power
LIBS:device
LIBS:transistors
LIBS:conn
LIBS:linear
LIBS:regul
LIBS:74xx
LIBS:cmos4000
LIBS:adc-dac
LIBS:memory
LIBS:xilinx
LIBS:microcontrollers
LIBS:dsp
LIBS:microchip
LIBS:analog_switches
LIBS:motorola
LIBS:texas
LIBS:intel
LIBS:audio
LIBS:interface
LIBS:digital-audio
LIBS:philips
LIBS:display
LIBS:cypress
LIBS:siliconi
LIBS:opto
LIBS:atmel
LIBS:contrib
LIBS:valves
LIBS:ferrite
LIBS:conn_22x2
LIBS:MagnavoxOdyssey1-cache
EELAYER 25 0
EELAYER END
$Descr A4 11693 8268
encoding utf-8
Sheet 7 12
Title ""
Date ""
Rev ""
Comp ""
Comment1 ""
Comment2 ""
Comment3 ""
Comment4 ""
$EndDescr
Text Notes 4400 1100 0    157  ~ 0
FLIP-FLOP/BALL
Text Notes 4800 1350 0    118  ~ 0
703494-2
$Comp
L NPN 16_Q4
U 1 1 588FC2DA
P 6350 5450
F 0 "16_Q4" H 6541 5496 50  0000 L CNN
F 1 "142N10" H 6541 5405 50  0000 L CNN
F 2 "" H 6350 5450 60  0000 C CNN
F 3 "" H 6350 5450 60  0000 C CNN
	1    6350 5450
	1    0    0    -1  
$EndComp
$Comp
L NPN 16_Q3
U 1 1 588FC345
P 4300 5450
F 0 "16_Q3" H 4491 5496 50  0000 L CNN
F 1 "142N10" H 4491 5405 50  0000 L CNN
F 2 "" H 4300 5450 60  0000 C CNN
F 3 "" H 4300 5450 60  0000 C CNN
	1    4300 5450
	-1   0    0    -1  
$EndComp
$Comp
L R 16_R4
U 1 1 588FC38F
P 6000 4800
F 0 "16_R4" V 5815 4800 40  0000 C CNN
F 1 "47k" V 5891 4800 40  0000 C CNN
F 2 "" V 5930 4800 30  0000 C CNN
F 3 "" H 6000 4800 30  0000 C CNN
	1    6000 4800
	0    1    1    0   
$EndComp
$Comp
L R 16_R5
U 1 1 588FC3D4
P 4600 4800
F 0 "16_R5" V 4415 4800 40  0000 C CNN
F 1 "47k" V 4491 4800 40  0000 C CNN
F 2 "" V 4530 4800 30  0000 C CNN
F 3 "" H 4600 4800 30  0000 C CNN
	1    4600 4800
	0    1    1    0   
$EndComp
$Comp
L CP1 16_C3
U 1 1 588FC6B0
P 4600 4350
F 0 "16_C3" V 4870 4350 50  0000 C CNN
F 1 "100" V 4779 4350 50  0000 C CNN
F 2 "" H 4600 4350 60  0000 C CNN
F 3 "" H 4600 4350 60  0000 C CNN
	1    4600 4350
	0    -1   -1   0   
$EndComp
$Comp
L CP1 16_C4
U 1 1 588FC719
P 6000 4350
F 0 "16_C4" V 5730 4350 50  0000 C CNN
F 1 "100" V 5821 4350 50  0000 C CNN
F 2 "" H 6000 4350 60  0000 C CNN
F 3 "" H 6000 4350 60  0000 C CNN
	1    6000 4350
	0    1    1    0   
$EndComp
Wire Wire Line
	6450 4350 6450 5250
Wire Wire Line
	4200 4050 4200 5250
Wire Wire Line
	4500 5450 5000 5450
Wire Wire Line
	5000 5450 5600 4800
Wire Wire Line
	5600 4800 5750 4800
Wire Wire Line
	4850 4800 5000 4800
Wire Wire Line
	5000 4800 5600 5450
Wire Wire Line
	5600 5450 6150 5450
Connection ~ 4200 4800
Wire Wire Line
	4800 4350 5000 4350
Wire Wire Line
	5000 4350 5000 4800
Connection ~ 5000 4800
Wire Wire Line
	5800 4350 5600 4350
Wire Wire Line
	5600 4350 5600 4800
Connection ~ 5600 4800
Wire Wire Line
	6200 4350 6700 4350
Connection ~ 6450 4800
$Comp
L R 16_R7
U 1 1 588FCBDF
P 6950 4350
F 0 "16_R7" V 6765 4350 40  0000 C CNN
F 1 "1k" V 6841 4350 40  0000 C CNN
F 2 "" V 6880 4350 30  0000 C CNN
F 3 "" H 6950 4350 30  0000 C CNN
	1    6950 4350
	0    1    1    0   
$EndComp
Connection ~ 6450 4350
$Comp
L R 16_R2
U 1 1 588FD265
P 6000 2800
F 0 "16_R2" V 6185 2800 40  0000 C CNN
F 1 "47k" V 6109 2800 40  0000 C CNN
F 2 "" V 5930 2800 30  0000 C CNN
F 3 "" H 6000 2800 30  0000 C CNN
	1    6000 2800
	0    1    -1   0   
$EndComp
$Comp
L R 16_R1
U 1 1 588FD26B
P 4600 2800
F 0 "16_R1" V 4785 2800 40  0000 C CNN
F 1 "47k" V 4709 2800 40  0000 C CNN
F 2 "" V 4530 2800 30  0000 C CNN
F 3 "" H 4600 2800 30  0000 C CNN
	1    4600 2800
	0    1    -1   0   
$EndComp
$Comp
L CP1 16_C1
U 1 1 588FD271
P 4600 3250
F 0 "16_C1" V 4330 3250 50  0000 C CNN
F 1 ".1 100V" V 4421 3250 50  0000 C CNN
F 2 "" H 4600 3250 60  0000 C CNN
F 3 "" H 4600 3250 60  0000 C CNN
	1    4600 3250
	0    -1   1    0   
$EndComp
$Comp
L CP1 16_C2
U 1 1 588FD277
P 6000 3250
F 0 "16_C2" V 6270 3250 50  0000 C CNN
F 1 ".1 100V" V 6179 3250 50  0000 C CNN
F 2 "" H 6000 3250 60  0000 C CNN
F 3 "" H 6000 3250 60  0000 C CNN
	1    6000 3250
	0    1    -1   0   
$EndComp
Wire Wire Line
	6450 2350 6450 3250
Wire Wire Line
	4200 2350 4200 3550
Wire Wire Line
	4500 2150 5000 2150
Wire Wire Line
	5000 2150 5600 2800
Wire Wire Line
	5600 2800 5750 2800
Wire Wire Line
	4850 2800 5000 2800
Wire Wire Line
	5000 2800 5600 2150
Wire Wire Line
	5600 2150 6150 2150
Wire Wire Line
	4200 3250 4400 3250
Connection ~ 4200 2800
Wire Wire Line
	4800 3250 5000 3250
Wire Wire Line
	5000 3250 5000 2800
Connection ~ 5000 2800
Wire Wire Line
	5800 3250 5600 3250
Wire Wire Line
	5600 3250 5600 2800
Connection ~ 5600 2800
Wire Wire Line
	6200 3250 6700 3250
Connection ~ 6450 2800
$Comp
L R 16_R6
U 1 1 588FD291
P 6950 3250
F 0 "16_R6" V 7135 3250 40  0000 C CNN
F 1 "1k" V 7059 3250 40  0000 C CNN
F 2 "" V 6880 3250 30  0000 C CNN
F 3 "" H 6950 3250 30  0000 C CNN
	1    6950 3250
	0    1    -1   0   
$EndComp
Connection ~ 6450 3250
$Comp
L R 16_R3
U 1 1 588FD2D0
P 4200 3800
F 0 "16_R3" H 4130 3762 40  0000 R CNN
F 1 "2.2k" H 4130 3838 40  0000 R CNN
F 2 "" V 4130 3800 30  0000 C CNN
F 3 "" H 4200 3800 30  0000 C CNN
	1    4200 3800
	1    0    0    1   
$EndComp
Connection ~ 4200 3250
Connection ~ 4200 4350
Wire Wire Line
	7200 3250 7450 3250
Wire Wire Line
	7450 3250 7450 4350
Wire Wire Line
	7450 4350 7200 4350
Text HLabel 8050 3800 2    61   Output ~ 0
(6)
Wire Wire Line
	8050 3800 7450 3800
Connection ~ 7450 3800
$Comp
L PNP 16_Q2
U 1 1 588FDA55
P 6350 2150
F 0 "16_Q2" H 6541 2203 60  0000 L CNN
F 1 "134P1" H 6541 2097 60  0000 L CNN
F 2 "" H 6350 2150 60  0000 C CNN
F 3 "" H 6350 2150 60  0000 C CNN
	1    6350 2150
	1    0    0    -1  
$EndComp
$Comp
L PNP 16_Q1
U 1 1 588FDB05
P 4300 2150
F 0 "16_Q1" H 4490 2203 60  0000 L CNN
F 1 "134P1" H 4490 2097 60  0000 L CNN
F 2 "" H 4300 2150 60  0000 C CNN
F 3 "" H 4300 2150 60  0000 C CNN
	1    4300 2150
	-1   0    0    -1  
$EndComp
Wire Wire Line
	6450 1700 6450 1950
Wire Wire Line
	3400 1700 6450 1700
Wire Wire Line
	4200 1700 4200 1950
Text HLabel 3400 1700 0    61   Input ~ 0
(10)_5.6V
Connection ~ 4200 1700
Wire Wire Line
	4400 4350 4200 4350
$Comp
L GND #PWR067
U 1 1 588FE5F6
P 4200 5900
F 0 "#PWR067" H 4200 5900 30  0001 C CNN
F 1 "GND" H 4200 5830 30  0001 C CNN
F 2 "" H 4200 5900 60  0001 C CNN
F 3 "" H 4200 5900 60  0001 C CNN
	1    4200 5900
	1    0    0    -1  
$EndComp
Wire Wire Line
	4200 5650 4200 5900
Text HLabel 3400 5750 0    61   Input ~ 0
(4)_GND
Wire Wire Line
	3400 5750 4200 5750
Connection ~ 4200 5750
$Comp
L GND #PWR068
U 1 1 588FE81C
P 6450 5900
F 0 "#PWR068" H 6450 5900 30  0001 C CNN
F 1 "GND" H 6450 5830 30  0001 C CNN
F 2 "" H 6450 5900 60  0001 C CNN
F 3 "" H 6450 5900 60  0001 C CNN
	1    6450 5900
	1    0    0    -1  
$EndComp
Wire Wire Line
	6450 5900 6450 5650
Text HLabel 5000 6050 3    61   Input ~ 0
(3)
Text HLabel 5600 6050 3    61   Input ~ 0
(5)
Wire Wire Line
	5600 5450 5600 6050
Connection ~ 5600 5450
Wire Wire Line
	5000 5450 5000 6050
Connection ~ 5000 5450
Wire Notes Line
	2500 650  8700 650 
Wire Notes Line
	8700 650  8700 6350
Wire Notes Line
	8700 6350 2500 6350
Wire Notes Line
	2500 6350 2500 650 
Text Notes 4600 5550 0    61   ~ 0
0 to .6V
Text Notes 5650 5550 0    61   ~ 0
0 to .6V
Wire Wire Line
	6450 4800 6250 4800
Wire Wire Line
	6450 2800 6250 2800
Wire Wire Line
	4200 4800 4350 4800
Wire Wire Line
	4200 2800 4350 2800
$EndSCHEMATC
