EESchema Schematic File Version 2
LIBS:power
LIBS:device
LIBS:transistors
LIBS:conn
LIBS:linear
LIBS:regul
LIBS:74xx
LIBS:cmos4000
LIBS:adc-dac
LIBS:memory
LIBS:xilinx
LIBS:microcontrollers
LIBS:dsp
LIBS:microchip
LIBS:analog_switches
LIBS:motorola
LIBS:texas
LIBS:intel
LIBS:audio
LIBS:interface
LIBS:digital-audio
LIBS:philips
LIBS:display
LIBS:cypress
LIBS:siliconi
LIBS:opto
LIBS:atmel
LIBS:contrib
LIBS:valves
LIBS:ferrite
LIBS:conn_22x2
LIBS:MagnavoxOdyssey1-cache
EELAYER 25 0
EELAYER END
$Descr A4 11693 8268
encoding utf-8
Sheet 2 12
Title ""
Date ""
Rev ""
Comp ""
Comment1 ""
Comment2 ""
Comment3 ""
Comment4 ""
$EndDescr
$Comp
L NPN 17_Q2
U 1 1 588C9FF5
P 3250 4250
F 0 "17_Q2" H 3441 4296 50  0000 L CNN
F 1 "142N4" H 3441 4205 50  0000 L CNN
F 2 "" H 3250 4250 60  0000 C CNN
F 3 "" H 3250 4250 60  0000 C CNN
	1    3250 4250
	1    0    0    -1  
$EndComp
$Comp
L NPN 17_Q1
U 1 1 588CA078
P 9150 4650
F 0 "17_Q1" H 9341 4696 50  0000 L CNN
F 1 "139N2" H 9341 4605 50  0000 L CNN
F 2 "" H 9150 4650 60  0000 C CNN
F 3 "" H 9150 4650 60  0000 C CNN
	1    9150 4650
	1    0    0    -1  
$EndComp
$Comp
L GND #PWR047
U 1 1 588CA129
P 3350 4800
F 0 "#PWR047" H 3350 4800 30  0001 C CNN
F 1 "GND" H 3350 4730 30  0001 C CNN
F 2 "" H 3350 4800 60  0001 C CNN
F 3 "" H 3350 4800 60  0001 C CNN
	1    3350 4800
	1    0    0    -1  
$EndComp
$Comp
L GND #PWR048
U 1 1 588CA141
P 10100 5300
F 0 "#PWR048" H 10100 5300 30  0001 C CNN
F 1 "GND" H 10100 5230 30  0001 C CNN
F 2 "" H 10100 5300 60  0001 C CNN
F 3 "" H 10100 5300 60  0001 C CNN
	1    10100 5300
	1    0    0    -1  
$EndComp
$Comp
L CP1 17_C2
U 1 1 588CA160
P 5850 4650
F 0 "17_C2" V 6120 4650 50  0000 C CNN
F 1 "47" V 6029 4650 50  0000 C CNN
F 2 "" H 5850 4650 60  0000 C CNN
F 3 "" H 5850 4650 60  0000 C CNN
	1    5850 4650
	0    -1   -1   0   
$EndComp
$Comp
L CP1 17_C5
U 1 1 588CA3B7
P 4200 4250
F 0 "17_C5" H 4333 4296 50  0000 L CNN
F 1 "6.8 N750" H 4333 4205 50  0000 L CNN
F 2 "" H 4200 4250 60  0000 C CNN
F 3 "" H 4200 4250 60  0000 C CNN
	1    4200 4250
	1    0    0    -1  
$EndComp
$Comp
L VARICAP 17_C6
U 1 1 588CA4ED
P 4950 4250
F 0 "17_C6" V 4996 4122 50  0000 R CNN
F 1 "VARICAP" V 4905 4122 50  0000 R CNN
F 2 "" H 4950 4250 60  0000 C CNN
F 3 "" H 4950 4250 60  0000 C CNN
	1    4950 4250
	0    -1   -1   0   
$EndComp
$Comp
L CP1 17_C4
U 1 1 588CA66B
P 2400 4550
F 0 "17_C4" H 2533 4596 50  0000 L CNN
F 1 "1000" H 2533 4505 50  0000 L CNN
F 2 "" H 2400 4550 60  0000 C CNN
F 3 "" H 2400 4550 60  0000 C CNN
	1    2400 4550
	1    0    0    -1  
$EndComp
$Comp
L GND #PWR049
U 1 1 588CA718
P 2400 4900
F 0 "#PWR049" H 2400 4900 30  0001 C CNN
F 1 "GND" H 2400 4830 30  0001 C CNN
F 2 "" H 2400 4900 60  0001 C CNN
F 3 "" H 2400 4900 60  0001 C CNN
	1    2400 4900
	1    0    0    -1  
$EndComp
$Comp
L R 17_R4
U 1 1 588CA7FA
P 2400 3700
F 0 "17_R4" H 2471 3738 40  0000 L CNN
F 1 "4,7k" H 2471 3662 40  0000 L CNN
F 2 "" V 2330 3700 30  0000 C CNN
F 3 "" H 2400 3700 30  0000 C CNN
	1    2400 3700
	1    0    0    -1  
$EndComp
$Comp
L CP1 17_C8
U 1 1 588CA9E7
P 3500 3300
F 0 "17_C8" H 3633 3346 50  0000 L CNN
F 1 "1000" H 3633 3255 50  0000 L CNN
F 2 "" H 3500 3300 60  0000 C CNN
F 3 "" H 3500 3300 60  0000 C CNN
	1    3500 3300
	1    0    0    -1  
$EndComp
$Comp
L GND #PWR050
U 1 1 588CAB2F
P 3500 3650
F 0 "#PWR050" H 3500 3650 30  0001 C CNN
F 1 "GND" H 3500 3580 30  0001 C CNN
F 2 "" H 3500 3650 60  0001 C CNN
F 3 "" H 3500 3650 60  0001 C CNN
	1    3500 3650
	1    0    0    -1  
$EndComp
$Comp
L CP1 17_C7
U 1 1 588CABD1
P 4950 3350
F 0 "17_C7" H 5083 3396 50  0000 L CNN
F 1 "12 N330" H 5083 3305 50  0000 L CNN
F 2 "" H 4950 3350 60  0000 C CNN
F 3 "" H 4950 3350 60  0000 C CNN
	1    4950 3350
	1    0    0    -1  
$EndComp
$Comp
L CP1 17_C1
U 1 1 588CAC87
P 3000 2500
F 0 "17_C1" V 3270 2500 50  0000 C CNN
F 1 "1.2" V 3179 2500 50  0000 C CNN
F 2 "" H 3000 2500 60  0000 C CNN
F 3 "" H 3000 2500 60  0000 C CNN
	1    3000 2500
	0    -1   -1   0   
$EndComp
$Comp
L R 17_R6
U 1 1 588CB021
P 6200 3550
F 0 "17_R6" H 6271 3588 40  0000 L CNN
F 1 "1500 5%" H 6271 3512 40  0000 L CNN
F 2 "" V 6130 3550 30  0000 C CNN
F 3 "" H 6200 3550 30  0000 C CNN
	1    6200 3550
	1    0    0    -1  
$EndComp
$Comp
L INDUCTOR 17_L1
U 1 1 588CB539
P 6800 3500
F 0 "17_L1" H 6879 3538 40  0000 L CNN
F 1 "VARIABLE INDUCTOR" H 6879 3462 40  0000 L CNN
F 2 "" H 6800 3500 60  0000 C CNN
F 3 "" H 6800 3500 60  0000 C CNN
	1    6800 3500
	1    0    0    -1  
$EndComp
$Comp
L CP1 17_C3
U 1 1 588CB907
P 8050 2950
F 0 "17_C3" V 8320 2950 50  0000 C CNN
F 1 "220" V 8229 2950 50  0000 C CNN
F 2 "" H 8050 2950 60  0000 C CNN
F 3 "" H 8050 2950 60  0000 C CNN
	1    8050 2950
	0    -1   -1   0   
$EndComp
$Comp
L R 17_R7
U 1 1 588CBB56
P 8550 3550
F 0 "17_R7" H 8621 3588 40  0000 L CNN
F 1 "120k" H 8621 3512 40  0000 L CNN
F 2 "" V 8480 3550 30  0000 C CNN
F 3 "" H 8550 3550 30  0000 C CNN
	1    8550 3550
	1    0    0    -1  
$EndComp
$Comp
L R 17_R8
U 1 1 588CBE20
P 9650 5100
F 0 "17_R8" V 9465 5100 40  0000 C CNN
F 1 "27" V 9541 5100 40  0000 C CNN
F 2 "" V 9580 5100 30  0000 C CNN
F 3 "" H 9650 5100 30  0000 C CNN
	1    9650 5100
	0    1    1    0   
$EndComp
$Comp
L R 17_R5
U 1 1 588CC103
P 9750 2950
F 0 "17_R5" V 9565 2950 40  0000 C CNN
F 1 "15k 5%" V 9641 2950 40  0000 C CNN
F 2 "" V 9680 2950 30  0000 C CNN
F 3 "" H 9750 2950 30  0000 C CNN
	1    9750 2950
	0    1    1    0   
$EndComp
$Comp
L CP1 17_C9
U 1 1 588CC7DE
P 10150 3400
F 0 "17_C9" H 10283 3446 50  0000 L CNN
F 1 "1000" H 10283 3355 50  0000 L CNN
F 2 "" H 10150 3400 60  0000 C CNN
F 3 "" H 10150 3400 60  0000 C CNN
	1    10150 3400
	1    0    0    -1  
$EndComp
$Comp
L GND #PWR051
U 1 1 588CC7E4
P 10150 3750
F 0 "#PWR051" H 10150 3750 30  0001 C CNN
F 1 "GND" H 10150 3680 30  0001 C CNN
F 2 "" H 10150 3750 60  0001 C CNN
F 3 "" H 10150 3750 60  0001 C CNN
	1    10150 3750
	1    0    0    -1  
$EndComp
Text HLabel 10950 2950 2    60   Output ~ 0
4
Text HLabel 3850 2950 2    60   Output ~ 0
8
Wire Wire Line
	3350 4450 3350 4800
Wire Wire Line
	3350 4650 5650 4650
Connection ~ 3350 4650
Wire Wire Line
	6050 4650 8950 4650
Wire Wire Line
	4200 4450 4200 4650
Connection ~ 4200 4650
Wire Wire Line
	3350 4050 3350 3850
Wire Wire Line
	3350 3850 4950 3850
Wire Wire Line
	4200 3850 4200 4050
Wire Wire Line
	4950 4500 4950 4650
Connection ~ 4950 4650
Wire Wire Line
	4950 3550 4950 4000
Connection ~ 4200 3850
Wire Wire Line
	3050 4250 2400 4250
Wire Wire Line
	2400 3950 2400 4350
Wire Wire Line
	2400 4900 2400 4750
Connection ~ 2400 4250
Wire Wire Line
	3500 3100 3500 2950
Wire Wire Line
	2400 2950 3850 2950
Wire Wire Line
	2400 2950 2400 3450
Wire Wire Line
	3500 3500 3500 3650
Connection ~ 4950 3850
Wire Wire Line
	4950 2500 4950 3150
Wire Wire Line
	4950 2500 3200 2500
Wire Notes Line
	4500 2800 4500 3650
Wire Notes Line
	4500 3650 5550 3650
Wire Notes Line
	5550 3650 5550 4200
Wire Notes Line
	5550 4200 7550 4200
Wire Notes Line
	7550 4200 7550 2800
Wire Notes Line
	7550 2800 4500 2800
Wire Wire Line
	6200 3800 6200 4650
Connection ~ 6200 4650
Wire Wire Line
	6800 3800 6800 4650
Connection ~ 6800 4650
Wire Wire Line
	4950 2950 7850 2950
Wire Wire Line
	6800 2950 6800 3200
Connection ~ 4950 2950
Wire Wire Line
	6200 3300 6200 2950
Connection ~ 6200 2950
Connection ~ 6800 2950
Wire Wire Line
	8250 2950 9500 2950
Wire Wire Line
	8550 2950 8550 3300
Wire Wire Line
	8550 3800 8550 4650
Connection ~ 8550 4650
Wire Wire Line
	9250 2950 9250 4450
Connection ~ 8550 2950
Wire Wire Line
	9900 5100 10100 5100
Wire Wire Line
	10100 5100 10100 5300
Wire Wire Line
	9250 4850 9250 5100
Wire Wire Line
	9250 5100 9400 5100
Connection ~ 9250 2950
Wire Wire Line
	10150 3600 10150 3750
Wire Wire Line
	10150 3200 10150 2950
Wire Wire Line
	10000 2950 10950 2950
Connection ~ 10150 2950
Connection ~ 3500 2950
$Comp
L R 17_R3
U 1 1 588CD5B3
P 1750 4650
F 0 "17_R3" H 1821 4688 40  0000 L CNN
F 1 "6.8k 5%" H 1821 4612 40  0000 L CNN
F 2 "" V 1680 4650 30  0000 C CNN
F 3 "" H 1750 4650 30  0000 C CNN
	1    1750 4650
	1    0    0    -1  
$EndComp
Wire Wire Line
	1750 4900 1750 5600
Wire Wire Line
	1750 5600 10750 5600
Wire Wire Line
	10750 5600 10750 2950
Connection ~ 10750 2950
Wire Wire Line
	1500 2500 2800 2500
Wire Wire Line
	1750 2500 1750 4400
$Comp
L CP1 17_C10
U 1 1 588CDE3D
P 1350 3950
F 0 "17_C10" V 1150 3950 50  0000 C CNN
F 1 "15" V 1050 3950 50  0000 C CNN
F 2 "" H 1350 3950 60  0000 C CNN
F 3 "" H 1350 3950 60  0000 C CNN
	1    1350 3950
	0    -1   -1   0   
$EndComp
$Comp
L R 17_R2
U 1 1 588CDFF6
P 1350 3650
F 0 "17_R2" V 1165 3650 40  0000 C CNN
F 1 "2.2k" V 1241 3650 40  0000 C CNN
F 2 "" V 1280 3650 30  0000 C CNN
F 3 "" H 1350 3650 30  0000 C CNN
	1    1350 3650
	0    1    1    0   
$EndComp
Wire Wire Line
	1600 3650 1750 3650
Connection ~ 1750 3650
Wire Wire Line
	750  3650 1100 3650
Wire Wire Line
	950  3500 950  4450
Wire Wire Line
	750  3950 1150 3950
Text HLabel 750  3650 0    60   Input ~ 0
1
Text HLabel 750  3800 0    60   Input ~ 0
3
Text HLabel 750  3950 0    60   Input ~ 0
2
Text HLabel 750  4100 0    60   Input ~ 0
9
Text HLabel 750  4250 0    60   Input ~ 0
10
Connection ~ 950  3650
Wire Wire Line
	750  3800 950  3800
Connection ~ 950  3800
Connection ~ 950  3950
Wire Wire Line
	750  4100 950  4100
Connection ~ 950  4100
Connection ~ 950  4250
$Comp
L GND #PWR052
U 1 1 588CE613
P 950 4450
F 0 "#PWR052" H 950 4450 30  0001 C CNN
F 1 "GND" H 950 4380 30  0001 C CNN
F 2 "" H 950 4450 60  0001 C CNN
F 3 "" H 950 4450 60  0001 C CNN
	1    950  4450
	1    0    0    -1  
$EndComp
Wire Wire Line
	1550 3950 1750 3950
Connection ~ 1750 3950
$Comp
L R 17_R1
U 1 1 588CEE76
P 950 3250
F 0 "17_R1" H 879 3212 40  0000 R CNN
F 1 "2.2k" H 879 3288 40  0000 R CNN
F 2 "" V 880 3250 30  0000 C CNN
F 3 "" H 950 3250 30  0000 C CNN
	1    950  3250
	-1   0    0    1   
$EndComp
$Comp
L DIODE 17_D1
U 1 1 588CF01C
P 1300 2500
F 0 "17_D1" H 1300 2308 40  0000 C CNN
F 1 "DIODE" H 1300 2384 40  0000 C CNN
F 2 "" H 1300 2500 60  0000 C CNN
F 3 "" H 1300 2500 60  0000 C CNN
	1    1300 2500
	-1   0    0    1   
$EndComp
Connection ~ 1750 2500
Wire Wire Line
	750  2500 1100 2500
Wire Wire Line
	950  2500 950  3000
Text HLabel 750  2500 0    60   Input ~ 0
6
Connection ~ 950  2500
Wire Wire Line
	750  4250 950  4250
$EndSCHEMATC
