EESchema Schematic File Version 2
LIBS:power
LIBS:device
LIBS:transistors
LIBS:conn
LIBS:linear
LIBS:regul
LIBS:74xx
LIBS:cmos4000
LIBS:adc-dac
LIBS:memory
LIBS:xilinx
LIBS:microcontrollers
LIBS:dsp
LIBS:microchip
LIBS:analog_switches
LIBS:motorola
LIBS:texas
LIBS:intel
LIBS:audio
LIBS:interface
LIBS:digital-audio
LIBS:philips
LIBS:display
LIBS:cypress
LIBS:siliconi
LIBS:opto
LIBS:atmel
LIBS:contrib
LIBS:valves
LIBS:ferrite
LIBS:conn_22x2
LIBS:MagnavoxOdyssey1-cache
EELAYER 25 0
EELAYER END
$Descr A0 46811 33110
encoding utf-8
Sheet 1 12
Title ""
Date ""
Rev ""
Comp ""
Comment1 ""
Comment2 ""
Comment3 ""
Comment4 ""
$EndDescr
$Sheet
S 38900 9600 2050 750 
U 588C9EE2
F0 "J17 - RF OSCILLATOR 703497-3" 60
F1 "J17_RF_Oscillator.sch" 60
F2 "4" O R 40950 9950 60 
F3 "8" O R 40950 9750 60 
F4 "1" I L 38900 9850 60 
F5 "3" I L 38900 9950 60 
F6 "2" I L 38900 10050 60 
F7 "9" I L 38900 10150 60 
F8 "10" I L 38900 10250 60 
F9 "6" I L 38900 9700 60 
$EndSheet
$Comp
L GND #PWR01
U 1 1 588D0E3F
P 38750 10400
F 0 "#PWR01" H 38750 10400 30  0001 C CNN
F 1 "GND" H 38750 10330 30  0001 C CNN
F 2 "" H 38750 10400 60  0001 C CNN
F 3 "" H 38750 10400 60  0001 C CNN
	1    38750 10400
	1    0    0    -1  
$EndComp
$Comp
L CP1 C17
U 1 1 588D10EE
P 41500 10350
F 0 "C17" H 41633 10396 50  0000 L CNN
F 1 "1000" H 41633 10305 50  0000 L CNN
F 2 "" H 41500 10350 60  0000 C CNN
F 3 "" H 41500 10350 60  0000 C CNN
	1    41500 10350
	1    0    0    -1  
$EndComp
$Comp
L GND #PWR02
U 1 1 588D12A9
P 41500 10700
F 0 "#PWR02" H 41500 10700 30  0001 C CNN
F 1 "GND" H 41500 10630 30  0001 C CNN
F 2 "" H 41500 10700 60  0001 C CNN
F 3 "" H 41500 10700 60  0001 C CNN
	1    41500 10700
	1    0    0    -1  
$EndComp
$Comp
L CP1 C18
U 1 1 588D1406
P 42600 10700
F 0 "C18" H 42733 10746 50  0000 L CNN
F 1 "1000" H 42733 10655 50  0000 L CNN
F 2 "" H 42600 10700 60  0000 C CNN
F 3 "" H 42600 10700 60  0000 C CNN
	1    42600 10700
	1    0    0    -1  
$EndComp
$Comp
L GND #PWR03
U 1 1 588D140D
P 42600 11050
F 0 "#PWR03" H 42600 11050 30  0001 C CNN
F 1 "GND" H 42600 10980 30  0001 C CNN
F 2 "" H 42600 11050 60  0001 C CNN
F 3 "" H 42600 11050 60  0001 C CNN
	1    42600 11050
	1    0    0    -1  
$EndComp
$Comp
L GND #PWR04
U 1 1 588D1503
P 43250 11050
F 0 "#PWR04" H 43250 11050 30  0001 C CNN
F 1 "GND" H 43250 10980 30  0001 C CNN
F 2 "" H 43250 11050 60  0001 C CNN
F 3 "" H 43250 11050 60  0001 C CNN
	1    43250 11050
	1    0    0    -1  
$EndComp
$Comp
L R R54
U 1 1 588D1544
P 43250 10700
F 0 "R54" H 43321 10738 40  0000 L CNN
F 1 "100k" H 43321 10662 40  0000 L CNN
F 2 "" V 43180 10700 30  0000 C CNN
F 3 "" H 43250 10700 30  0000 C CNN
	1    43250 10700
	1    0    0    -1  
$EndComp
$Comp
L SWITCH_INV S1
U 1 1 588D179C
P 43250 9400
F 0 "S1" V 43296 9222 50  0000 R CNN
F 1 "CHANNEL SWITCH" V 43205 9222 50  0000 R CNN
F 2 "" H 43250 9400 60  0000 C CNN
F 3 "" H 43250 9400 60  0000 C CNN
	1    43250 9400
	0    -1   -1   0   
$EndComp
$Comp
L TST TP4
U 1 1 588D180E
P 38200 9600
F 0 "TP4" H 38278 9724 40  0000 L CNN
F 1 "SWEEP INPUT" H 38278 9656 30  0000 L CNN
F 2 "" H 38200 9600 60  0000 C CNN
F 3 "" H 38200 9600 60  0000 C CNN
	1    38200 9600
	1    0    0    -1  
$EndComp
NoConn ~ 43350 8900
Text Notes 42950 8850 0    60   ~ 0
CH3
Text Notes 43350 8850 0    60   ~ 0
CH4
Text GLabel 43700 9950 2    60   BiDi ~ 0
+5.6V
$Comp
L PWR_FLAG #FLG05
U 1 1 588D2C2A
P 27650 10050
F 0 "#FLG05" H 27650 10145 30  0001 C CNN
F 1 "PWR_FLAG" H 27650 10258 30  0000 C CNN
F 2 "" H 27650 10050 60  0001 C CNN
F 3 "" H 27650 10050 60  0001 C CNN
	1    27650 10050
	-1   0    0    -1  
$EndComp
$Comp
L PWR_FLAG #FLG06
U 1 1 588D2F49
P 28700 10200
F 0 "#FLG06" H 28700 10295 30  0001 C CNN
F 1 "PWR_FLAG" H 28700 10408 30  0000 C CNN
F 2 "" H 28700 10200 60  0001 C CNN
F 3 "" H 28700 10200 60  0001 C CNN
	1    28700 10200
	-1   0    0    -1  
$EndComp
$Comp
L FERRITE FB2
U 1 1 588D4500
P 41950 9950
F 0 "FB2" H 41950 10050 50  0000 C CNN
F 1 "FERRITE" H 41950 10150 50  0000 C CNN
F 2 "" H 41950 9850 60  0000 C CNN
F 3 "" H 41950 9850 60  0000 C CNN
	1    41950 9950
	-1   0    0    1   
$EndComp
$Comp
L FERRITE FB1
U 1 1 588D584D
P 38200 10050
F 0 "FB1" H 38200 10150 50  0000 C CNN
F 1 "FERRITE" H 38200 10250 50  0000 C CNN
F 2 "" H 38200 9950 60  0000 C CNN
F 3 "" H 38200 9950 60  0000 C CNN
	1    38200 10050
	0    1    1    0   
$EndComp
Text GLabel 38200 10400 3    60   Input ~ 0
COMPOSITE_VIDEO
Text GLabel 15800 22500 2    60   Output ~ 0
COMPOSITE_VIDEO
$Sheet
S 12650 21600 2850 1750
U 588D6A1D
F0 "J12 - SUMMER 703496-2" 60
F1 "J12_Summer.sch" 60
F2 "(10)_OUT" O R 15500 22500 60 
F3 "(7)_HORIZONTAL_SYNC_IN" I R 15500 22200 60 
F4 "(8)_VERTICAL_SYNC_IN" I R 15500 21850 60 
F5 "(2)_PLAYER1_INPUT" I L 12650 21850 60 
F6 "(1)" I L 12650 22000 60 
F7 "(3)" I L 12650 22500 60 
F8 "(4)_PLAYER2_INPUT" I L 12650 22350 60 
F9 "(5)_BALL_INPUT" I L 12650 22850 60 
F10 "(6)_WALL_INPUT" I L 12650 23150 60 
$EndSheet
$Sheet
S 22000 15400 2850 1650
U 588DC7EC
F0 "J7 - WALL GENERATOR 703493-2" 60
F1 "J7_WallGenerator.sch" 60
F2 "(1)_VERT_IN" I L 22000 16800 60 
F3 "(10)_HORIZ_IN" I L 22000 16000 60 
F4 "(6)" I L 22000 16250 60 
F5 "(9)" I L 22000 15500 60 
F6 "(4)" O R 24850 16900 60 
F7 "(2)" O R 24850 16600 60 
F8 "(5)" O R 24850 16000 60 
F9 "(3)_GND" O R 24850 16250 60 
F10 "(7)" O R 24850 15550 60 
$EndSheet
$Comp
L GND #PWR07
U 1 1 588E1867
P 25050 16450
F 0 "#PWR07" H 25050 16450 30  0001 C CNN
F 1 "GND" H 25050 16380 30  0001 C CNN
F 2 "" H 25050 16450 60  0001 C CNN
F 3 "" H 25050 16450 60  0001 C CNN
	1    25050 16450
	1    0    0    -1  
$EndComp
Text GLabel 21800 16800 0    60   Input ~ 0
VERT_IN
Text GLabel 21800 16000 0    60   Input ~ 0
HORIZ_IN
$Comp
L R R21
U 1 1 588E3706
P 25150 17300
F 0 "R21" H 25221 17338 40  0000 L CNN
F 1 "120k" H 25221 17262 40  0000 L CNN
F 2 "" V 25080 17300 30  0000 C CNN
F 3 "" H 25150 17300 30  0000 C CNN
	1    25150 17300
	1    0    0    -1  
$EndComp
Text GLabel 24850 17650 0    60   BiDi ~ 0
GAME_CARD_10
$Comp
L R R19
U 1 1 588E4763
P 25600 17050
F 0 "R19" H 25671 17088 40  0000 L CNN
F 1 "130k 5%" H 25671 17012 40  0000 L CNN
F 2 "" V 25530 17050 30  0000 C CNN
F 3 "" H 25600 17050 30  0000 C CNN
	1    25600 17050
	1    0    0    -1  
$EndComp
$Comp
L CAPAPOL C5
U 1 1 588E4B0A
P 26250 17050
F 0 "C5" H 26359 17088 40  0000 L CNN
F 1 "10 MFD 35V" H 26359 17012 40  0000 L CNN
F 2 "" H 26350 16900 30  0000 C CNN
F 3 "" H 26250 17050 300 0000 C CNN
	1    26250 17050
	1    0    0    -1  
$EndComp
$Comp
L GND #PWR08
U 1 1 588E4C90
P 25600 17450
F 0 "#PWR08" H 25600 17450 30  0001 C CNN
F 1 "GND" H 25600 17380 30  0001 C CNN
F 2 "" H 25600 17450 60  0001 C CNN
F 3 "" H 25600 17450 60  0001 C CNN
	1    25600 17450
	1    0    0    -1  
$EndComp
$Comp
L GND #PWR09
U 1 1 588E4DED
P 26250 17450
F 0 "#PWR09" H 26250 17450 30  0001 C CNN
F 1 "GND" H 26250 17380 30  0001 C CNN
F 2 "" H 26250 17450 60  0001 C CNN
F 3 "" H 26250 17450 60  0001 C CNN
	1    26250 17450
	1    0    0    -1  
$EndComp
Text Notes 24900 16700 0    60   ~ 0
2.7V
Text Notes 24900 17000 0    60   ~ 0
-.9V
Text GLabel 25050 16000 2    60   Output ~ 0
WALL
Text GLabel 12400 23150 0    60   Input ~ 0
WALL
$Comp
L POT R17
U 1 1 588E6783
P 26950 16000
F 0 "R17" V 26900 15900 50  0000 R CNN
F 1 "50k" V 26800 15900 50  0000 R CNN
F 2 "" H 26950 16000 60  0000 C CNN
F 3 "" H 26950 16000 60  0000 C CNN
	1    26950 16000
	0    -1   -1   0   
$EndComp
$Comp
L R R20
U 1 1 588E704A
P 26950 15050
F 0 "R20" H 27021 15088 40  0000 L CNN
F 1 "820k" H 27021 15012 40  0000 L CNN
F 2 "" V 26880 15050 30  0000 C CNN
F 3 "" H 26950 15050 30  0000 C CNN
	1    26950 15050
	1    0    0    -1  
$EndComp
$Comp
L R R18
U 1 1 588E7851
P 26950 16700
F 0 "R18" H 27021 16738 40  0000 L CNN
F 1 "27k" H 27021 16662 40  0000 L CNN
F 2 "" V 26880 16700 30  0000 C CNN
F 3 "" H 26950 16700 30  0000 C CNN
	1    26950 16700
	1    0    0    -1  
$EndComp
Text Notes 27050 16000 0    60   ~ 0
WALL\nWIDTH
Text GLabel 27150 14650 2    60   BiDi ~ 0
GAME_CARD_16
Text GLabel 27050 17100 2    60   BiDi ~ 0
GAME_CARD_14
Text GLabel 21000 16600 3    60   BiDi ~ 0
GAME_CARD_14
$Comp
L R R15
U 1 1 588EB9C6
P 21000 15900
F 0 "R15" H 21071 15938 40  0000 L CNN
F 1 "47k" H 21071 15862 40  0000 L CNN
F 2 "" V 20930 15900 30  0000 C CNN
F 3 "" H 21000 15900 30  0000 C CNN
	1    21000 15900
	1    0    0    -1  
$EndComp
Text Notes 21700 15450 0    60   ~ 0
2.8V
$Comp
L CAPAPOL C3
U 1 1 588ED02F
P 20350 15950
F 0 "C3" H 20459 15988 40  0000 L CNN
F 1 "10 MFD 35V" H 20459 15912 40  0000 L CNN
F 2 "" H 20450 15800 30  0000 C CNN
F 3 "" H 20350 15950 300 0000 C CNN
	1    20350 15950
	1    0    0    -1  
$EndComp
$Comp
L GND #PWR010
U 1 1 588ED036
P 20350 16350
F 0 "#PWR010" H 20350 16350 30  0001 C CNN
F 1 "GND" H 20350 16280 30  0001 C CNN
F 2 "" H 20350 16350 60  0001 C CNN
F 3 "" H 20350 16350 60  0001 C CNN
	1    20350 16350
	1    0    0    -1  
$EndComp
$Comp
L POT R12
U 1 1 588ED95A
P 19800 16650
F 0 "R12" V 19750 16550 50  0000 R CNN
F 1 "25k" V 19650 16550 50  0000 R CNN
F 2 "" H 19800 16650 60  0000 C CNN
F 3 "" H 19800 16650 60  0000 C CNN
	1    19800 16650
	0    -1   1    0   
$EndComp
$Comp
L R R11
U 1 1 588ED96B
P 19800 15950
F 0 "R11" H 19729 15912 40  0000 R CNN
F 1 "15k" H 19729 15988 40  0000 R CNN
F 2 "" V 19730 15950 30  0000 C CNN
F 3 "" H 19800 15950 30  0000 C CNN
	1    19800 15950
	1    0    0    1   
$EndComp
Text Notes 19900 16950 0    60   ~ 0
WALL\nCENT\nADJ
$Comp
L GND #PWR011
U 1 1 588EE1CF
P 19800 17350
F 0 "#PWR011" H 19800 17350 30  0001 C CNN
F 1 "GND" H 19800 17280 30  0001 C CNN
F 2 "" H 19800 17350 60  0001 C CNN
F 3 "" H 19800 17350 60  0001 C CNN
	1    19800 17350
	1    0    0    -1  
$EndComp
$Comp
L R R10
U 1 1 588EFB43
P 19800 15100
F 0 "R10" H 19729 15062 40  0000 R CNN
F 1 "39k" H 19729 15138 40  0000 R CNN
F 2 "" V 19730 15100 30  0000 C CNN
F 3 "" H 19800 15100 30  0000 C CNN
	1    19800 15100
	1    0    0    1   
$EndComp
Text GLabel 19700 14750 0    60   BiDi ~ 0
GAME_CARD_12
$Sheet
S 12850 28000 2850 1550
U 588F18CD
F0 "J10 - HORIZ SYNC GENERATOR 703491-3" 60
F1 "J10_Horiz_Sync_Generator.sch" 60
F2 "(3)_HORIZ_RATE" I L 12850 28600 60 
F3 "(7)_HSYNC" O R 15700 28600 60 
F4 "(4)" B R 15700 29150 60 
F5 "(5)" B R 15700 29300 60 
F6 "(6)" I L 12850 29350 60 
F7 "(9)" I L 12850 28200 60 
$EndSheet
$Comp
L GND #PWR012
U 1 1 588F66C0
P 15850 29500
F 0 "#PWR012" H 15850 29500 30  0001 C CNN
F 1 "GND" H 15850 29430 30  0001 C CNN
F 2 "" H 15850 29500 60  0001 C CNN
F 3 "" H 15850 29500 60  0001 C CNN
	1    15850 29500
	1    0    0    -1  
$EndComp
Text GLabel 16000 28600 2    60   Output ~ 0
HORIZ_IN
$Comp
L POT R38
U 1 1 588F9335
P 11600 28600
F 0 "R38" V 11550 28500 50  0000 R CNN
F 1 "50k" V 11450 28500 50  0000 R CNN
F 2 "" H 11600 28600 60  0000 C CNN
F 3 "" H 11600 28600 60  0000 C CNN
	1    11600 28600
	0    1    1    0   
$EndComp
Text Notes 11500 28900 2    60   ~ 0
HORIZ\nFREQ\nADJ
$Comp
L R R37
U 1 1 588F9D57
P 11600 29450
F 0 "R37" H 11529 29412 40  0000 R CNN
F 1 "R" H 11529 29488 40  0000 R CNN
F 2 "" V 11530 29450 30  0000 C CNN
F 3 "" H 11600 29450 30  0000 C CNN
	1    11600 29450
	-1   0    0    1   
$EndComp
Text GLabel 11400 27950 0    60   BiDi ~ 0
+5.6V
$Comp
L R R22
U 1 1 588FC285
P 12050 30250
F 0 "R22" V 12235 30250 40  0000 C CNN
F 1 "3900" V 12159 30250 40  0000 C CNN
F 2 "" V 11980 30250 30  0000 C CNN
F 3 "" H 12050 30250 30  0000 C CNN
	1    12050 30250
	0    -1   -1   0   
$EndComp
$Comp
L R TM2
U 1 1 588FD512
P 12050 29900
F 0 "TM2" V 12235 29900 40  0000 C CNN
F 1 "T" V 12159 29900 40  0000 C CNN
F 2 "" V 11980 29900 30  0000 C CNN
F 3 "" H 12050 29900 30  0000 C CNN
	1    12050 29900
	0    -1   -1   0   
$EndComp
$Sheet
S 19450 27900 2850 1550
U 5890191B
F0 "J9 - VERT SYNC GENERATOR 703492-3" 60
F1 "J9_Vert_Sync_Generator.sch" 60
F2 "(7)_VERT_IN" O R 22300 28500 60 
F3 "(4)" B R 22300 29050 60 
F4 "(5)" B R 22300 29200 60 
F5 "(6)" I L 19450 29250 60 
F6 "(9)_5.6V" I L 19450 28100 60 
F7 "(3)_VERT_RATE" O L 19450 28500 60 
$EndSheet
$Comp
L GND #PWR013
U 1 1 58901921
P 22450 29400
F 0 "#PWR013" H 22450 29400 30  0001 C CNN
F 1 "GND" H 22450 29330 30  0001 C CNN
F 2 "" H 22450 29400 60  0001 C CNN
F 3 "" H 22450 29400 60  0001 C CNN
	1    22450 29400
	1    0    0    -1  
$EndComp
Text GLabel 22650 28500 2    60   Output ~ 0
VERT_IN
$Comp
L POT R39
U 1 1 5890192D
P 18200 28500
F 0 "R39" V 18150 28400 50  0000 R CNN
F 1 "100k" V 18050 28400 50  0000 R CNN
F 2 "" H 18200 28500 60  0000 C CNN
F 3 "" H 18200 28500 60  0000 C CNN
	1    18200 28500
	0    1    1    0   
$EndComp
Text Notes 18100 28800 2    60   ~ 0
VERT\nFREQ\nADJ
Text GLabel 17150 27350 0    60   BiDi ~ 0
+5.6V
$Comp
L R R23
U 1 1 58901944
P 18650 29600
F 0 "R23" V 18835 29600 40  0000 C CNN
F 1 "27k" V 18759 29600 40  0000 C CNN
F 2 "" V 18580 29600 30  0000 C CNN
F 3 "" H 18650 29600 30  0000 C CNN
	1    18650 29600
	0    -1   -1   0   
$EndComp
$Comp
L R TM1
U 1 1 58901951
P 18650 29250
F 0 "TM1" V 18835 29250 40  0000 C CNN
F 1 "T" V 18759 29250 40  0000 C CNN
F 2 "" V 18580 29250 30  0000 C CNN
F 3 "" H 18650 29250 30  0000 C CNN
	1    18650 29250
	0    -1   -1   0   
$EndComp
$Comp
L CAPAPOL C6
U 1 1 58904703
P 17350 28450
F 0 "C6" H 17459 28488 40  0000 L CNN
F 1 "100 MFD 10V" H 17459 28412 40  0000 L CNN
F 2 "" H 17450 28300 30  0000 C CNN
F 3 "" H 17350 28450 300 0000 C CNN
	1    17350 28450
	1    0    0    -1  
$EndComp
$Comp
L R R24
U 1 1 5890490C
P 17350 27750
F 0 "R24" H 17279 27712 40  0000 R CNN
F 1 "100" H 17279 27788 40  0000 R CNN
F 2 "" V 17280 27750 30  0000 C CNN
F 3 "" H 17350 27750 30  0000 C CNN
	1    17350 27750
	-1   0    0    1   
$EndComp
$Comp
L GND #PWR014
U 1 1 58905FFA
P 17350 28850
F 0 "#PWR014" H 17350 28850 30  0001 C CNN
F 1 "GND" H 17350 28780 30  0001 C CNN
F 2 "" H 17350 28850 60  0001 C CNN
F 3 "" H 17350 28850 60  0001 C CNN
	1    17350 28850
	1    0    0    -1  
$EndComp
Text Notes 6400 7250 0    60   ~ 0
NOTES:\nUNLESS OTHERWISE SPECIFIED\n1. CAPACITANCE VALUES 1 OR GREATER ARE IN PICOFARADS.\n2. CAPACITANCE VALUES LESS THAN 1 ARE IN MICROFARADS.\n3. RESISTORS ARE 1/4 WATT, 10%.\n4. (TRIANGLE) = ADD JUMPERS WHERE PARTS INDICATED.\n5. (ASTERISK) = SPACE PROVIDED ON LAYOUT, NO JUMPER.\n6. DIODES IN CIRCLES ARE GERMANIUM, OTHERS ARE SILICON.\n7. VOLTAGE READINGS TAKEN WITH CARD/\n    UNLESS OTHERWISE NOTED.\n8. VOLTAGE READINGS TAKEN WITH FLUKE DIGITAL VOLTMETER\n    #8100 A.
$Sheet
S 25900 27350 2850 2500
U 588FBF2A
F0 "J16 - FLIP-FLOP/BALL 703494-2" 60
F1 "J16_FlipFlopBall.sch" 60
F2 "(6)" O R 28750 28150 60 
F3 "(10)_5.6V" I L 25900 27500 60 
F4 "(4)_GND" I L 25900 28950 60 
F5 "(3)" I L 25900 29400 60 
F6 "(5)" I L 25900 29650 60 
$EndSheet
$Comp
L CONN_22X2 GAME_CARD_1
U 1 1 589078BB
P 5700 10550
F 0 "GAME_CARD_1" H 5700 12071 60  0000 C CNN
F 1 "CONN_22X2" H 5700 11973 50  0000 C CNN
F 2 "" H 5700 10550 60  0000 C CNN
F 3 "" H 5700 10550 60  0000 C CNN
	1    5700 10550
	1    0    0    -1  
$EndComp
Text GLabel 7950 9750 2    60   BiDi ~ 0
GAME_CARD_10
$Comp
L GND #PWR015
U 1 1 5890F84D
P 25750 29100
F 0 "#PWR015" H 25750 29100 30  0001 C CNN
F 1 "GND" H 25750 29030 30  0001 C CNN
F 2 "" H 25750 29100 118 0001 C CNN
F 3 "" H 25750 29100 118 0001 C CNN
	1    25750 29100
	1    0    0    -1  
$EndComp
Text GLabel 7150 10050 2    60   BiDi ~ 0
GAME_CARD_16
Text GLabel 7950 9950 2    60   BiDi ~ 0
GAME_CARD_14
Text GLabel 7150 9850 2    60   BiDi ~ 0
GAME_CARD_12
Text GLabel 6500 9050 1    60   BiDi ~ 0
+5.6V
Text GLabel 7200 9050 1    60   Input ~ 0
5.6V_REGULATOR_IN
NoConn ~ 5300 9350
NoConn ~ 5300 9650
NoConn ~ 5300 11450
Text GLabel 24450 29400 0    60   BiDi ~ 0
GAME_CARD_17
Text GLabel 24450 29650 0    60   BiDi ~ 0
GAME_CARD_11
$Comp
L JUMPER JU8
U 1 1 5892B2BB
P 25150 29400
F 0 "JU8" H 25150 29656 60  0000 C CNN
F 1 "JUMPER" H 25150 29565 40  0000 C CNN
F 2 "" H 25150 29400 60  0000 C CNN
F 3 "" H 25150 29400 60  0000 C CNN
	1    25150 29400
	1    0    0    -1  
$EndComp
$Comp
L JUMPER JU2
U 1 1 5892B675
P 25150 29650
F 0 "JU2" H 25150 29550 60  0000 C CNN
F 1 "JUMPER" H 25150 29450 40  0000 C CNN
F 2 "" H 25150 29650 60  0000 C CNN
F 3 "" H 25150 29650 60  0000 C CNN
	1    25150 29650
	1    0    0    -1  
$EndComp
Text GLabel 29400 28150 2    60   BiDi ~ 0
GAME_CARD_36
Text GLabel 25650 27500 0    60   BiDi ~ 0
+5.6V
Text GLabel 19200 27900 1    60   Output ~ 0
VERT_RATE
Text GLabel 15800 21850 2    60   Input ~ 0
VERT_RATE
Text GLabel 15800 22200 2    60   Input ~ 0
HORIZ_RATE
Text GLabel 12550 28050 1    60   Input ~ 0
HORIZ_RATE
Text GLabel 4100 10150 0    60   BiDi ~ 0
GAME_CARD_17
Text GLabel 3300 9850 0    60   BiDi ~ 0
GAME_CARD_11
Text GLabel 7150 11050 2    60   BiDi ~ 0
GAME_CARD_36
$Sheet
S 11450 15450 2850 1650
U 58904212
F0 "J8 - BALL GENERATOR 703493-2" 60
F1 "J8_BallGenerator.sch" 60
F2 "(1)_VERT_IN" I L 11450 16850 60 
F3 "(10)_HORIZ_IN" I L 11450 16050 60 
F4 "(6)" I L 11450 16300 60 
F5 "(9)" I L 11450 15550 60 
F6 "(4)" O R 14300 16950 60 
F7 "(2)" O R 14300 16650 60 
F8 "(5)" O R 14300 16050 60 
F9 "(3)_GND" O R 14300 16300 60 
F10 "(8)" O R 14300 15800 60 
F11 "(7)" O R 14300 15600 60 
$EndSheet
$Comp
L GND #PWR016
U 1 1 58904218
P 14500 16500
F 0 "#PWR016" H 14500 16500 30  0001 C CNN
F 1 "GND" H 14500 16430 30  0001 C CNN
F 2 "" H 14500 16500 60  0001 C CNN
F 3 "" H 14500 16500 60  0001 C CNN
	1    14500 16500
	1    0    0    -1  
$EndComp
Text GLabel 11250 16850 0    60   Input ~ 0
VERT_IN
Text GLabel 11250 16050 0    60   Input ~ 0
HORIZ_IN
$Comp
L R R8
U 1 1 5890422F
P 17350 16850
F 0 "R8" H 17421 16888 40  0000 L CNN
F 1 "4.7k" H 17421 16812 40  0000 L CNN
F 2 "" V 17280 16850 30  0000 C CNN
F 3 "" H 17350 16850 30  0000 C CNN
	1    17350 16850
	1    0    0    -1  
$EndComp
$Comp
L CAPAPOL C4
U 1 1 58904237
P 18000 16850
F 0 "C4" H 18109 16888 40  0000 L CNN
F 1 "47 MFD 16V" H 18109 16812 40  0000 L CNN
F 2 "" H 18100 16700 30  0000 C CNN
F 3 "" H 18000 16850 300 0000 C CNN
	1    18000 16850
	1    0    0    -1  
$EndComp
$Comp
L GND #PWR017
U 1 1 58904246
P 18000 17250
F 0 "#PWR017" H 18000 17250 30  0001 C CNN
F 1 "GND" H 18000 17180 30  0001 C CNN
F 2 "" H 18000 17250 60  0001 C CNN
F 3 "" H 18000 17250 60  0001 C CNN
	1    18000 17250
	1    0    0    -1  
$EndComp
Text Notes 14350 16750 0    60   ~ 0
3.2V
Text Notes 14350 17050 0    60   ~ 0
.7V
Text GLabel 14500 16050 2    60   Output ~ 0
BALL
$Comp
L POT R6
U 1 1 58904251
P 16400 16050
F 0 "R6" V 16350 15950 50  0000 R CNN
F 1 "50k" V 16250 15950 50  0000 R CNN
F 2 "" H 16400 16050 60  0000 C CNN
F 3 "" H 16400 16050 60  0000 C CNN
	1    16400 16050
	0    -1   -1   0   
$EndComp
$Comp
L R R7
U 1 1 58904262
P 16400 16750
F 0 "R7" H 16471 16788 40  0000 L CNN
F 1 "27k" H 16471 16712 40  0000 L CNN
F 2 "" V 16330 16750 30  0000 C CNN
F 3 "" H 16400 16750 30  0000 C CNN
	1    16400 16750
	1    0    0    -1  
$EndComp
Text Notes 16500 16050 0    60   ~ 0
BALL\nWIDTH
Text Notes 10800 15500 0    60   ~ 0
1.5V TO 4.5V
$Comp
L CAPAPOL C1
U 1 1 5890427E
P 10200 16000
F 0 "C1" H 10309 16038 40  0000 L CNN
F 1 "220 MFD 10V" H 10309 15962 40  0000 L CNN
F 2 "" H 10300 15850 30  0000 C CNN
F 3 "" H 10200 16000 300 0000 C CNN
	1    10200 16000
	1    0    0    -1  
$EndComp
$Comp
L GND #PWR018
U 1 1 58904285
P 10200 16400
F 0 "#PWR018" H 10200 16400 30  0001 C CNN
F 1 "GND" H 10200 16330 30  0001 C CNN
F 2 "" H 10200 16400 60  0001 C CNN
F 3 "" H 10200 16400 60  0001 C CNN
	1    10200 16400
	1    0    0    -1  
$EndComp
$Comp
L POT R3
U 1 1 5890428D
P 9050 15550
F 0 "R3" H 8950 15650 50  0000 R CNN
F 1 "9k" H 8950 15750 50  0000 R CNN
F 2 "" H 9050 15550 60  0000 C CNN
F 3 "" H 9050 15550 60  0000 C CNN
	1    9050 15550
	1    0    0    1   
$EndComp
Text Notes 9200 15450 2    60   ~ 0
BALL\nSPEED
$Comp
L R R13
U 1 1 589042A8
P 9850 15950
F 0 "R13" H 9779 15912 40  0000 R CNN
F 1 "33k 5%" H 9779 15988 40  0000 R CNN
F 2 "" V 9780 15950 30  0000 C CNN
F 3 "" H 9850 15950 30  0000 C CNN
	1    9850 15950
	1    0    0    1   
$EndComp
Text GLabel 8050 15550 0    60   BiDi ~ 0
GAME_CARD_34
$Comp
L POT R4
U 1 1 58913369
P 16400 18300
F 0 "R4" V 16350 18200 50  0000 R CNN
F 1 "15k" V 16250 18200 50  0000 R CNN
F 2 "" H 16400 18300 60  0000 C CNN
F 3 "" H 16400 18300 60  0000 C CNN
	1    16400 18300
	0    -1   1    0   
$EndComp
$Comp
L R R5
U 1 1 58913373
P 16400 17600
F 0 "R5" H 16471 17638 40  0000 L CNN
F 1 "10k" H 16471 17562 40  0000 L CNN
F 2 "" V 16330 17600 30  0000 C CNN
F 3 "" H 16400 17600 30  0000 C CNN
	1    16400 17600
	1    0    0    1   
$EndComp
Text Notes 16500 18500 0    60   ~ 0
BALL\nHEIGHT
Text GLabel 16650 17150 2    60   BiDi ~ 0
+5.6V
$Comp
L R R14
U 1 1 589196DC
P 17350 15950
F 0 "R14" H 17421 15988 40  0000 L CNN
F 1 "6.8k" H 17421 15912 40  0000 L CNN
F 2 "" V 17280 15950 30  0000 C CNN
F 3 "" H 17350 15950 30  0000 C CNN
	1    17350 15950
	1    0    0    -1  
$EndComp
$Comp
L R R9
U 1 1 5891B6DE
P 18000 15950
F 0 "R9" H 18071 15988 40  0000 L CNN
F 1 "8.2k" H 18071 15912 40  0000 L CNN
F 2 "" V 17930 15950 30  0000 C CNN
F 3 "" H 18000 15950 30  0000 C CNN
	1    18000 15950
	1    0    0    -1  
$EndComp
Text GLabel 17350 15500 1    60   BiDi ~ 0
GAME_CARD_44
Text GLabel 18000 15500 1    60   BiDi ~ 0
GAME_CARD_42
Text GLabel 17350 17250 3    60   BiDi ~ 0
GAME_CARD_40
Text GLabel 11250 16300 0    60   BiDi ~ 0
+5.6V
$Comp
L GND #PWR019
U 1 1 5892D153
P 9850 16400
F 0 "#PWR019" H 9850 16400 30  0001 C CNN
F 1 "GND" H 9850 16330 30  0001 C CNN
F 2 "" H 9850 16400 60  0001 C CNN
F 3 "" H 9850 16400 60  0001 C CNN
	1    9850 16400
	1    0    0    -1  
$EndComp
$Comp
L R R2
U 1 1 5892D7C8
P 8450 15550
F 0 "R2" V 8350 15550 40  0000 R CNN
F 1 "2.7k" V 8550 15600 40  0000 R CNN
F 2 "" V 8380 15550 30  0000 C CNN
F 3 "" H 8450 15550 30  0000 C CNN
	1    8450 15550
	0    -1   1    0   
$EndComp
$Comp
L R R1
U 1 1 5892DAF0
P 8750 16350
F 0 "R1" V 8650 16350 40  0000 R CNN
F 1 "1.2k" V 8850 16400 40  0000 R CNN
F 2 "" V 8680 16350 30  0000 C CNN
F 3 "" H 8750 16350 30  0000 C CNN
	1    8750 16350
	0    -1   1    0   
$EndComp
Text GLabel 8050 16350 0    60   BiDi ~ 0
GAME_CARD_32
Text GLabel 14600 15400 1    60   BiDi ~ 0
GAME_CARD_25
Text GLabel 4100 10550 0    60   BiDi ~ 0
GAME_CARD_25
Text GLabel 7150 11250 2    60   BiDi ~ 0
GAME_CARD_40
Text GLabel 7150 10850 2    60   BiDi ~ 0
GAME_CARD_32
Text GLabel 7950 10950 2    60   BiDi ~ 0
GAME_CARD_34
Text GLabel 7950 11350 2    60   BiDi ~ 0
GAME_CARD_42
Text GLabel 7150 11450 2    60   BiDi ~ 0
GAME_CARD_44
NoConn ~ 6100 10650
Text GLabel 12400 22850 0    60   Input ~ 0
BALL
$Comp
L CAPAPOL C12
U 1 1 5890E1A7
P 6650 11900
F 0 "C12" H 6759 11938 40  0000 L CNN
F 1 "100 MFD 10V" H 6759 11862 40  0000 L CNN
F 2 "" H 6750 11750 30  0000 C CNN
F 3 "" H 6650 11900 300 0000 C CNN
	1    6650 11900
	1    0    0    -1  
$EndComp
$Comp
L GND #PWR020
U 1 1 5890E1AD
P 6650 12300
F 0 "#PWR020" H 6650 12300 30  0001 C CNN
F 1 "GND" H 6650 12230 30  0001 C CNN
F 2 "" H 6650 12300 60  0001 C CNN
F 3 "" H 6650 12300 60  0001 C CNN
	1    6650 12300
	1    0    0    -1  
$EndComp
$Sheet
S 30300 15450 2850 1650
U 5891515D
F0 "J6 - PLAYER NO.1 GEN 703493-2" 60
F1 "J6_Player1Generator.sch" 60
F2 "(1)_VERT_IN" I L 30300 16850 60 
F3 "(10)_HORIZ_IN" I L 30300 16050 60 
F4 "(6)" I L 30300 16300 60 
F5 "(9)" I L 30300 15550 60 
F6 "(4)" O R 33150 16950 60 
F7 "(2)" O R 33150 16650 60 
F8 "(5)" O R 33150 16050 60 
F9 "(3)_GND" O R 33150 16300 60 
F10 "(8)" O R 33150 15800 60 
F11 "(7)" O R 33150 15600 60 
$EndSheet
$Comp
L GND #PWR021
U 1 1 58915163
P 33350 16500
F 0 "#PWR021" H 33350 16500 30  0001 C CNN
F 1 "GND" H 33350 16430 30  0001 C CNN
F 2 "" H 33350 16500 60  0001 C CNN
F 3 "" H 33350 16500 60  0001 C CNN
	1    33350 16500
	1    0    0    -1  
$EndComp
Text GLabel 30100 16850 0    60   Input ~ 0
VERT_IN
Text GLabel 30100 16050 0    60   Input ~ 0
HORIZ_IN
$Comp
L CAPAPOL C8
U 1 1 5891517C
P 36150 16850
F 0 "C8" H 36259 16888 40  0000 L CNN
F 1 "47 MFD 50V" H 36259 16812 40  0000 L CNN
F 2 "" H 36250 16700 30  0000 C CNN
F 3 "" H 36150 16850 300 0000 C CNN
	1    36150 16850
	1    0    0    -1  
$EndComp
$Comp
L GND #PWR022
U 1 1 58915186
P 36150 17250
F 0 "#PWR022" H 36150 17250 30  0001 C CNN
F 1 "GND" H 36150 17180 30  0001 C CNN
F 2 "" H 36150 17250 60  0001 C CNN
F 3 "" H 36150 17250 60  0001 C CNN
	1    36150 17250
	1    0    0    -1  
$EndComp
Text Notes 33200 16750 0    60   ~ 0
3.2V
Text Notes 33200 17050 0    60   ~ 0
.7V
Text GLabel 33350 16050 2    60   Output ~ 0
PLAYER1
$Comp
L POT R26
U 1 1 58915191
P 35250 16050
F 0 "R26" V 35200 15950 50  0000 R CNN
F 1 "50k" V 35100 15950 50  0000 R CNN
F 2 "" H 35250 16050 60  0000 C CNN
F 3 "" H 35250 16050 60  0000 C CNN
	1    35250 16050
	0    -1   -1   0   
$EndComp
$Comp
L R R27
U 1 1 5891519C
P 35250 16750
F 0 "R27" H 35321 16788 40  0000 L CNN
F 1 "27k" H 35321 16712 40  0000 L CNN
F 2 "" V 35180 16750 30  0000 C CNN
F 3 "" H 35250 16750 30  0000 C CNN
	1    35250 16750
	1    0    0    -1  
$EndComp
Text Notes 35350 16050 0    60   ~ 0
PLAYER\nNO.1\nWIDTH
Text Notes 29650 15500 0    60   ~ 0
1.8V TO 3.6V
$Comp
L CAPAPOL C7
U 1 1 589151AC
P 29050 16000
F 0 "C7" H 29159 16038 40  0000 L CNN
F 1 "10 MFD 35V" H 29159 15962 40  0000 L CNN
F 2 "" H 29150 15850 30  0000 C CNN
F 3 "" H 29050 16000 300 0000 C CNN
	1    29050 16000
	1    0    0    -1  
$EndComp
$Comp
L GND #PWR023
U 1 1 589151B3
P 29050 16400
F 0 "#PWR023" H 29050 16400 30  0001 C CNN
F 1 "GND" H 29050 16330 30  0001 C CNN
F 2 "" H 29050 16400 60  0001 C CNN
F 3 "" H 29050 16400 60  0001 C CNN
	1    29050 16400
	1    0    0    -1  
$EndComp
$Comp
L POT R28
U 1 1 589151D3
P 35250 18300
F 0 "R28" V 35200 18200 50  0000 R CNN
F 1 "15k" V 35100 18200 50  0000 R CNN
F 2 "" H 35250 18300 60  0000 C CNN
F 3 "" H 35250 18300 60  0000 C CNN
	1    35250 18300
	0    -1   1    0   
$EndComp
$Comp
L R R29
U 1 1 589151DC
P 35250 17600
F 0 "R29" H 35321 17638 40  0000 L CNN
F 1 "10k" H 35321 17562 40  0000 L CNN
F 2 "" V 35180 17600 30  0000 C CNN
F 3 "" H 35250 17600 30  0000 C CNN
	1    35250 17600
	1    0    0    1   
$EndComp
Text Notes 35350 18600 0    60   ~ 0
PLAYER\nNO.1\nHEIGHT
Text GLabel 35500 17150 2    60   BiDi ~ 0
+5.6V
Text GLabel 36150 16000 1    60   BiDi ~ 0
CONTROL_1_VERT
Text GLabel 30100 16300 0    60   BiDi ~ 0
+5.6V
Text GLabel 33450 15400 1    60   BiDi ~ 0
GAME_CARD_19
Text GLabel 12400 21850 0    60   Input ~ 0
PLAYER1
Text GLabel 12400 22350 0    60   Input ~ 0
PLAYER2
Text GLabel 4950 9050 1    60   Input ~ 0
VERT_IN
Text Notes 16050 23250 0    60   ~ 0
COMPOSITE\nVIDEO
Text Notes 15800 22700 0    60   ~ 0
1.0V TO MODULATOR
Text Notes 30100 16800 0    60   ~ 0
.1V
Text Notes 30100 16000 0    60   ~ 0
.3V
Text GLabel 29050 15200 1    60   BiDi ~ 0
CONTROL_1_HORIZ
$Sheet
S 38450 15500 2850 1650
U 5894B682
F0 "J5 - PLAYER NO.2 GEN 703493-2" 60
F1 "J5_Player2Generator.sch" 60
F2 "(1)_VERT_IN" I L 38450 16900 60 
F3 "(10)_HORIZ_IN" I L 38450 16100 60 
F4 "(6)" I L 38450 16350 60 
F5 "(9)" I L 38450 15600 60 
F6 "(4)" O R 41300 17000 60 
F7 "(2)" O R 41300 16700 60 
F8 "(5)" O R 41300 16100 60 
F9 "(3)_GND" O R 41300 16350 60 
F10 "(8)" O R 41300 15850 60 
F11 "(7)" O R 41300 15650 60 
$EndSheet
$Comp
L GND #PWR024
U 1 1 5894B688
P 41500 16550
F 0 "#PWR024" H 41500 16550 30  0001 C CNN
F 1 "GND" H 41500 16480 30  0001 C CNN
F 2 "" H 41500 16550 60  0001 C CNN
F 3 "" H 41500 16550 60  0001 C CNN
	1    41500 16550
	1    0    0    -1  
$EndComp
Text GLabel 38050 16900 0    60   Input ~ 0
VERT_IN
Text GLabel 38050 16100 0    60   Input ~ 0
HORIZ_IN
$Comp
L CAPAPOL C10
U 1 1 5894B696
P 44300 16900
F 0 "C10" H 44409 16938 40  0000 L CNN
F 1 "4.7 MFD 50V" H 44409 16862 40  0000 L CNN
F 2 "" H 44400 16750 30  0000 C CNN
F 3 "" H 44300 16900 300 0000 C CNN
	1    44300 16900
	1    0    0    -1  
$EndComp
$Comp
L GND #PWR025
U 1 1 5894B69D
P 44300 17300
F 0 "#PWR025" H 44300 17300 30  0001 C CNN
F 1 "GND" H 44300 17230 30  0001 C CNN
F 2 "" H 44300 17300 60  0001 C CNN
F 3 "" H 44300 17300 60  0001 C CNN
	1    44300 17300
	1    0    0    -1  
$EndComp
Text GLabel 41500 16100 2    60   Output ~ 0
PLAYER2
$Comp
L POT R32
U 1 1 5894B6A8
P 43400 16100
F 0 "R32" V 43350 16000 50  0000 R CNN
F 1 "50k" V 43250 16000 50  0000 R CNN
F 2 "" H 43400 16100 60  0000 C CNN
F 3 "" H 43400 16100 60  0000 C CNN
	1    43400 16100
	0    -1   -1   0   
$EndComp
$Comp
L R R33
U 1 1 5894B6B2
P 43400 16800
F 0 "R33" H 43471 16838 40  0000 L CNN
F 1 "27k" H 43471 16762 40  0000 L CNN
F 2 "" V 43330 16800 30  0000 C CNN
F 3 "" H 43400 16800 30  0000 C CNN
	1    43400 16800
	1    0    0    -1  
$EndComp
Text Notes 43500 16100 0    60   ~ 0
PLAYER\nNO.2\nWIDTH
Text Notes 38200 15550 0    60   ~ 0
3.6V
$Comp
L CAPAPOL C9
U 1 1 5894B6BD
P 37000 16050
F 0 "C9" H 37109 16088 40  0000 L CNN
F 1 "10 MFD 35V" H 37109 16012 40  0000 L CNN
F 2 "" H 37100 15900 30  0000 C CNN
F 3 "" H 37000 16050 300 0000 C CNN
	1    37000 16050
	1    0    0    -1  
$EndComp
$Comp
L GND #PWR026
U 1 1 5894B6C4
P 37000 16450
F 0 "#PWR026" H 37000 16450 30  0001 C CNN
F 1 "GND" H 37000 16380 30  0001 C CNN
F 2 "" H 37000 16450 60  0001 C CNN
F 3 "" H 37000 16450 60  0001 C CNN
	1    37000 16450
	1    0    0    -1  
$EndComp
$Comp
L POT R31
U 1 1 5894B6CD
P 43400 18350
F 0 "R31" V 43350 18250 50  0000 R CNN
F 1 "15k" V 43250 18250 50  0000 R CNN
F 2 "" H 43400 18350 60  0000 C CNN
F 3 "" H 43400 18350 60  0000 C CNN
	1    43400 18350
	0    -1   1    0   
$EndComp
$Comp
L R R30
U 1 1 5894B6D6
P 43400 17650
F 0 "R30" H 43471 17688 40  0000 L CNN
F 1 "10k" H 43471 17612 40  0000 L CNN
F 2 "" V 43330 17650 30  0000 C CNN
F 3 "" H 43400 17650 30  0000 C CNN
	1    43400 17650
	1    0    0    1   
$EndComp
Text Notes 43500 18650 0    60   ~ 0
PLAYER\nNO.2\nHEIGHT
Text GLabel 43650 17200 2    60   BiDi ~ 0
+5.6V
Text GLabel 44300 16200 1    60   BiDi ~ 0
CONTROL_2_VERT
Text GLabel 37850 16350 0    60   BiDi ~ 0
+5.6V
Text GLabel 41600 15450 1    60   BiDi ~ 0
GAME_CARD_21
Text GLabel 37000 15250 1    60   BiDi ~ 0
CONTROL_2_HORIZ
$Comp
L FERRITE FB4
U 1 1 5895171C
P 38100 16350
F 0 "FB4" H 38100 16450 50  0000 C CNN
F 1 "FERRITE" H 38100 16550 50  0000 C CNN
F 2 "" H 38100 16250 60  0000 C CNN
F 3 "" H 38100 16250 60  0000 C CNN
	1    38100 16350
	-1   0    0    1   
$EndComp
$Comp
L TST TP3
U 1 1 589545A9
P 38200 16000
F 0 "TP3" H 38278 16124 40  0000 L CNN
F 1 "HORIZ" H 38278 16056 30  0000 L CNN
F 2 "" H 38200 16000 60  0000 C CNN
F 3 "" H 38200 16000 60  0000 C CNN
	1    38200 16000
	1    0    0    -1  
$EndComp
$Comp
L TST TP2
U 1 1 5895831C
P 38200 16800
F 0 "TP2" H 38278 16924 40  0000 L CNN
F 1 "VERT" H 38278 16856 30  0000 L CNN
F 2 "" H 38200 16800 60  0000 C CNN
F 3 "" H 38200 16800 60  0000 C CNN
	1    38200 16800
	1    0    0    -1  
$EndComp
Text GLabel 4100 10350 0    60   BiDi ~ 0
GAME_CARD_21
$Comp
L JUMPER JU12
U 1 1 58976E17
P 42500 17150
F 0 "JU12" V 42462 17277 60  0000 L CNN
F 1 "JUMPER" V 42553 17277 40  0000 L CNN
F 2 "" H 42500 17150 60  0000 C CNN
F 3 "" H 42500 17150 60  0000 C CNN
	1    42500 17150
	0    1    1    0   
$EndComp
Text GLabel 42500 17750 3    60   BiDi ~ 0
GAME_CARD_5
Text GLabel 4100 9550 0    60   BiDi ~ 0
GAME_CARD_5
$Comp
L CONN_12 J4
U 1 1 589A961F
P 11750 11100
F 0 "J4" H 11700 10300 60  0000 L CNN
F 1 "CONN_12" H 11550 10400 60  0000 L CNN
F 2 "" H 11750 11100 60  0000 C CNN
F 3 "" H 11750 11100 60  0000 C CNN
	1    11750 11100
	1    0    0    1   
$EndComp
$Comp
L CONN_12 J3
U 1 1 589AA8E8
P 12450 11100
F 0 "J3" H 12319 10303 60  0000 C CNN
F 1 "CONN_12" H 12319 10409 60  0000 C CNN
F 2 "" H 12450 11100 60  0000 C CNN
F 3 "" H 12450 11100 60  0000 C CNN
	1    12450 11100
	-1   0    0    1   
$EndComp
Text GLabel 13100 10300 1    60   BiDi ~ 0
CONTROL_2_HORIZ
Text GLabel 13250 10300 1    60   BiDi ~ 0
CONTROL_2_VERT
$Comp
L GND #PWR027
U 1 1 589B2773
P 12950 11850
F 0 "#PWR027" H 12950 11850 30  0001 C CNN
F 1 "GND" H 12950 11780 30  0001 C CNN
F 2 "" H 12950 11850 60  0001 C CNN
F 3 "" H 12950 11850 60  0001 C CNN
	1    12950 11850
	1    0    0    -1  
$EndComp
Text GLabel 13400 10300 1    60   BiDi ~ 0
CONTROL_2_ENGLISH
Text GLabel 13550 10300 1    60   BiDi ~ 0
CONTROL_2_RESET
Text GLabel 13950 10300 1    60   BiDi ~ 0
CONTROL_2_WHT
Text GLabel 14100 10300 1    60   BiDi ~ 0
CONTROL_2_ORN
Text GLabel 14250 10300 1    60   BiDi ~ 0
CONTROL_2_YEL
Text GLabel 14550 10300 1    60   BiDi ~ 0
CONTROL_2_GRN
Text GLabel 14700 10300 1    60   BiDi ~ 0
CONTROL_2_BLU
Text GLabel 11100 10300 1    60   BiDi ~ 0
CONTROL_1_HORIZ
Text GLabel 10950 10300 1    60   BiDi ~ 0
CONTROL_1_VERT
$Comp
L GND #PWR028
U 1 1 589B7E42
P 11250 11850
F 0 "#PWR028" H 11250 11850 30  0001 C CNN
F 1 "GND" H 11250 11780 30  0001 C CNN
F 2 "" H 11250 11850 60  0001 C CNN
F 3 "" H 11250 11850 60  0001 C CNN
	1    11250 11850
	-1   0    0    -1  
$EndComp
Text GLabel 10800 10300 1    60   BiDi ~ 0
CONTROL_1_ENGLISH
Text GLabel 10650 10300 1    60   BiDi ~ 0
CONTROL_1_RESET
Text GLabel 10250 10300 1    60   BiDi ~ 0
CONTROL_1_WHT
Text GLabel 10100 10300 1    60   BiDi ~ 0
CONTROL_1_ORN
Text GLabel 9950 10300 1    60   BiDi ~ 0
CONTROL_1_YEL
Text GLabel 9650 10300 1    60   BiDi ~ 0
CONTROL_1_GRN
Text GLabel 9500 10300 1    60   BiDi ~ 0
CONTROL_1_BLU
Text Notes 11450 10300 0    60   ~ 0
HAND\nCONTROL\nNO.1
Text Notes 12300 10300 0    60   ~ 0
HAND\nCONTROL\nNO.2
$Comp
L CONN_6 J20
U 1 1 589BFF81
P 16550 11150
F 0 "J20" H 16419 10642 60  0000 C CNN
F 1 "CONN_6" H 16419 10748 60  0000 C CNN
F 2 "" H 16550 11150 60  0000 C CNN
F 3 "" H 16550 11150 60  0000 C CNN
	1    16550 11150
	-1   0    0    1   
$EndComp
NoConn ~ 16900 11300
NoConn ~ 16900 11000
$Comp
L GND #PWR029
U 1 1 589C2A87
P 17000 11550
F 0 "#PWR029" H 17000 11550 30  0001 C CNN
F 1 "GND" H 17000 11480 30  0001 C CNN
F 2 "" H 17000 11550 60  0001 C CNN
F 3 "" H 17000 11550 60  0001 C CNN
	1    17000 11550
	1    0    0    -1  
$EndComp
$Comp
L CP1 C11
U 1 1 589C3242
P 18000 11750
F 0 "C11" H 18133 11796 50  0000 L CNN
F 1 ".001" H 18133 11705 50  0000 L CNN
F 2 "" H 18000 11750 60  0000 C CNN
F 3 "" H 18000 11750 60  0000 C CNN
	1    18000 11750
	1    0    0    -1  
$EndComp
$Comp
L GND #PWR030
U 1 1 589C3505
P 18000 12050
F 0 "#PWR030" H 18000 12050 30  0001 C CNN
F 1 "GND" H 18000 11980 30  0001 C CNN
F 2 "" H 18000 12050 60  0001 C CNN
F 3 "" H 18000 12050 60  0001 C CNN
	1    18000 12050
	1    0    0    -1  
$EndComp
$Comp
L NPN Q2
U 1 1 589C5CB8
P 18700 10600
F 0 "Q2" H 18890 10646 50  0000 L CNN
F 1 "142N9" H 18890 10555 50  0000 L CNN
F 2 "" H 18700 10600 60  0000 C CNN
F 3 "" H 18700 10600 60  0000 C CNN
	1    18700 10600
	-1   0    0    -1  
$EndComp
$Comp
L GND #PWR031
U 1 1 589C6726
P 18600 10950
F 0 "#PWR031" H 18600 10950 30  0001 C CNN
F 1 "GND" H 18600 10880 30  0001 C CNN
F 2 "" H 18600 10950 60  0001 C CNN
F 3 "" H 18600 10950 60  0001 C CNN
	1    18600 10950
	1    0    0    -1  
$EndComp
$Comp
L CP1 C20
U 1 1 589C7287
P 18650 11750
F 0 "C20" H 18783 11796 50  0000 L CNN
F 1 "330" H 18783 11705 50  0000 L CNN
F 2 "" H 18650 11750 60  0000 C CNN
F 3 "" H 18650 11750 60  0000 C CNN
	1    18650 11750
	1    0    0    -1  
$EndComp
$Comp
L GND #PWR032
U 1 1 589C728D
P 18650 12050
F 0 "#PWR032" H 18650 12050 30  0001 C CNN
F 1 "GND" H 18650 11980 30  0001 C CNN
F 2 "" H 18650 12050 60  0001 C CNN
F 3 "" H 18650 12050 60  0001 C CNN
	1    18650 12050
	1    0    0    -1  
$EndComp
$Comp
L ZENER Z2
U 1 1 589C7DA0
P 19150 11750
F 0 "Z2" V 19188 11671 50  0000 R CNN
F 1 "6.8V" V 19104 11671 40  0000 R CNN
F 2 "" H 19150 11750 60  0000 C CNN
F 3 "" H 19150 11750 60  0000 C CNN
	1    19150 11750
	0    -1   -1   0   
$EndComp
$Comp
L GND #PWR033
U 1 1 589C8B33
P 19150 12050
F 0 "#PWR033" H 19150 12050 30  0001 C CNN
F 1 "GND" H 19150 11980 30  0001 C CNN
F 2 "" H 19150 12050 60  0001 C CNN
F 3 "" H 19150 12050 60  0001 C CNN
	1    19150 12050
	1    0    0    -1  
$EndComp
$Comp
L R R44
U 1 1 589C90F3
P 19700 11400
F 0 "R44" V 19515 11400 40  0000 C CNN
F 1 "22k" V 19591 11400 40  0000 C CNN
F 2 "" V 19630 11400 30  0000 C CNN
F 3 "" H 19700 11400 30  0000 C CNN
	1    19700 11400
	0    1    1    0   
$EndComp
$Comp
L R R46
U 1 1 589C97CC
P 19650 9900
F 0 "R46" H 19579 9862 40  0000 R CNN
F 1 "10k" H 19579 9938 40  0000 R CNN
F 2 "" V 19580 9900 30  0000 C CNN
F 3 "" H 19650 9900 30  0000 C CNN
	1    19650 9900
	-1   0    0    1   
$EndComp
$Comp
L GND #PWR034
U 1 1 589CA913
P 19650 10300
F 0 "#PWR034" H 19650 10300 30  0001 C CNN
F 1 "GND" H 19650 10230 30  0001 C CNN
F 2 "" H 19650 10300 60  0001 C CNN
F 3 "" H 19650 10300 60  0001 C CNN
	1    19650 10300
	1    0    0    -1  
$EndComp
$Comp
L R R48
U 1 1 589CCF25
P 20150 9050
F 0 "R48" H 20079 9012 40  0000 R CNN
F 1 "2.2k" H 20079 9088 40  0000 R CNN
F 2 "" V 20080 9050 30  0000 C CNN
F 3 "" H 20150 9050 30  0000 C CNN
	1    20150 9050
	-1   0    0    1   
$EndComp
$Comp
L R R16
U 1 1 589CD4D6
P 19650 8650
F 0 "R16" H 19579 8612 40  0000 R CNN
F 1 "10k" H 19579 8688 40  0000 R CNN
F 2 "" V 19580 8650 30  0000 C CNN
F 3 "" H 19650 8650 30  0000 C CNN
	1    19650 8650
	-1   0    0    1   
$EndComp
$Comp
L CP1 C16
U 1 1 589CE6E4
P 19050 8400
F 0 "C16" H 19183 8446 50  0000 L CNN
F 1 "330" H 19183 8355 50  0000 L CNN
F 2 "" H 19050 8400 60  0000 C CNN
F 3 "" H 19050 8400 60  0000 C CNN
	1    19050 8400
	1    0    0    -1  
$EndComp
$Comp
L GND #PWR035
U 1 1 589CE6EA
P 19050 8700
F 0 "#PWR035" H 19050 8700 30  0001 C CNN
F 1 "GND" H 19050 8630 30  0001 C CNN
F 2 "" H 19050 8700 60  0001 C CNN
F 3 "" H 19050 8700 60  0001 C CNN
	1    19050 8700
	1    0    0    -1  
$EndComp
$Comp
L DIODE D2
U 1 1 589D10AD
P 20950 10200
F 0 "D2" V 20912 10278 40  0000 L CNN
F 1 "DIODE" V 20988 10278 40  0000 L CNN
F 2 "" H 20950 10200 60  0000 C CNN
F 3 "" H 20950 10200 60  0000 C CNN
	1    20950 10200
	0    1    1    0   
$EndComp
$Comp
L DIODE D3
U 1 1 589D14D6
P 21450 10200
F 0 "D3" V 21412 10278 40  0000 L CNN
F 1 "DIODE" V 21488 10278 40  0000 L CNN
F 2 "" H 21450 10200 60  0000 C CNN
F 3 "" H 21450 10200 60  0000 C CNN
	1    21450 10200
	0    1    1    0   
$EndComp
$Comp
L R R51
U 1 1 589D1A96
P 18350 8950
F 0 "R51" V 18535 8950 40  0000 C CNN
F 1 "39" V 18459 8950 40  0000 C CNN
F 2 "" V 18280 8950 30  0000 C CNN
F 3 "" H 18350 8950 30  0000 C CNN
	1    18350 8950
	0    -1   -1   0   
$EndComp
$Comp
L CP1 C19
U 1 1 589D4CE3
P 17450 11750
F 0 "C19" H 17583 11796 50  0000 L CNN
F 1 "1000" H 17583 11705 50  0000 L CNN
F 2 "" H 17450 11750 60  0000 C CNN
F 3 "" H 17450 11750 60  0000 C CNN
	1    17450 11750
	1    0    0    -1  
$EndComp
$Comp
L GND #PWR036
U 1 1 589D4CE9
P 17450 12050
F 0 "#PWR036" H 17450 12050 30  0001 C CNN
F 1 "GND" H 17450 11980 30  0001 C CNN
F 2 "" H 17450 12050 60  0001 C CNN
F 3 "" H 17450 12050 60  0001 C CNN
	1    17450 12050
	1    0    0    -1  
$EndComp
Text GLabel 7150 10450 2    60   BiDi ~ 0
GAME_CARD_24
Text GLabel 17450 10650 1    60   BiDi ~ 0
GAME_CARD_24
Text GLabel 17850 8750 0    60   BiDi ~ 0
GAME_CARD_23
Text GLabel 3300 10250 0    60   BiDi ~ 0
GAME_CARD_19
$Comp
L DIODE D4
U 1 1 589E370C
P 20150 8400
F 0 "D4" V 20112 8478 40  0000 L CNN
F 1 "DIODE" V 20188 8478 40  0000 L CNN
F 2 "" H 20150 8400 60  0000 C CNN
F 3 "" H 20150 8400 60  0000 C CNN
	1    20150 8400
	0    1    1    0   
$EndComp
Text GLabel 18800 8050 0    60   BiDi ~ 0
GAME_CARD_27
$Comp
L R R47
U 1 1 589E55DD
P 20450 8050
F 0 "R47" V 20635 8050 40  0000 C CNN
F 1 "4.7k" V 20559 8050 40  0000 C CNN
F 2 "" V 20380 8050 30  0000 C CNN
F 3 "" H 20450 8050 30  0000 C CNN
	1    20450 8050
	0    -1   -1   0   
$EndComp
Text GLabel 20000 7500 0    60   BiDi ~ 0
GAME_CARD_18
Text GLabel 20000 7700 0    60   BiDi ~ 0
GAME_CARD_33
Text GLabel 7950 10150 2    60   BiDi ~ 0
GAME_CARD_18
Text GLabel 4100 10950 0    60   BiDi ~ 0
GAME_CARD_33
Text GLabel 20950 9150 1    60   BiDi ~ 0
CONTROL_1_WHT
Text GLabel 21450 9150 1    60   BiDi ~ 0
CONTROL_2_WHT
$Comp
L GND #PWR037
U 1 1 589EFE0F
P 19050 9750
F 0 "#PWR037" H 19050 9750 30  0001 C CNN
F 1 "GND" H 19050 9680 30  0001 C CNN
F 2 "" H 19050 9750 60  0001 C CNN
F 3 "" H 19050 9750 60  0001 C CNN
	1    19050 9750
	1    0    0    -1  
$EndComp
$Comp
L THYRISTOR SCR1
U 1 1 589F04D7
P 19050 9400
F 0 "SCR1" V 18950 9650 40  0000 R CNN
F 1 "THYRISTOR" V 19050 9800 40  0000 R CNN
F 2 "" H 19050 9400 60  0000 C CNN
F 3 "" H 19050 9400 60  0000 C CNN
	1    19050 9400
	0    1    1    0   
$EndComp
Text Notes 18700 10450 0    60   ~ 0
CROWBAR\nRESET
Text Notes 16900 10900 0    60   ~ 0
RESET
Text Notes 18500 9500 0    60   ~ 0
0V - OFF\n.6V - ON
Text Notes 18950 9300 0    60   ~ 0
A
Text Notes 19150 9600 0    60   ~ 0
G
Text Notes 18950 9600 0    60   ~ 0
C
Text Notes 21050 10000 0    60   ~ 0
1.27V\nWITH\nRESET\nCLOSED
Text Notes 16400 11550 0    60   ~ 0
TARGET
Text Notes 28850 28100 0    60   ~ 0
.4 TO 5.4V
$Sheet
S 33200 27300 2850 2500
U 58A0A134
F0 "J15 - FLIP-FLOP/ENGLISH 703494-2" 60
F1 "J15_FlipFlopEnglish.sch" 60
F2 "(6)" O R 36050 28100 60 
F3 "(8)" O R 36050 27600 60 
F4 "(2)" O R 36050 28650 60 
F5 "(10)_5.6V" I L 33200 27450 60 
F6 "(1)" I L 33200 28650 60 
F7 "(7)" I L 33200 28200 60 
F8 "(4)_GND" I L 33200 28900 60 
F9 "(3)" I L 33200 29350 60 
F10 "(5)" I L 33200 29600 60 
$EndSheet
$Comp
L GND #PWR038
U 1 1 58A0A13E
P 33050 29050
F 0 "#PWR038" H 33050 29050 30  0001 C CNN
F 1 "GND" H 33050 28980 30  0001 C CNN
F 2 "" H 33050 29050 118 0001 C CNN
F 3 "" H 33050 29050 118 0001 C CNN
	1    33050 29050
	1    0    0    -1  
$EndComp
Text GLabel 32450 29600 0    60   BiDi ~ 0
MATRIX_9
Text GLabel 36700 28100 2    60   BiDi ~ 0
GAME_CARD_30
Text GLabel 32950 27450 0    60   BiDi ~ 0
+5.6V
$Comp
L DIODE D6
U 1 1 58A0C334
P 32850 28200
F 0 "D6" H 32850 28008 40  0000 C CNN
F 1 "DIODE" H 32850 28084 40  0000 C CNN
F 2 "" H 32850 28200 60  0000 C CNN
F 3 "" H 32850 28200 60  0000 C CNN
	1    32850 28200
	-1   0    0    1   
$EndComp
Text GLabel 32450 28200 0    60   BiDi ~ 0
CONTROL_1_BLU
$Comp
L DIODE D5
U 1 1 58A12FCD
P 32850 28650
F 0 "D5" H 32850 28458 40  0000 C CNN
F 1 "DIODE" H 32850 28534 40  0000 C CNN
F 2 "" H 32850 28650 60  0000 C CNN
F 3 "" H 32850 28650 60  0000 C CNN
	1    32850 28650
	-1   0    0    1   
$EndComp
Text GLabel 32450 28650 0    60   BiDi ~ 0
CONTROL_2_GRN
$Comp
L DIODE D8
U 1 1 58A197C3
P 36400 27600
F 0 "D8" H 36400 27792 40  0000 C CNN
F 1 "DIODE" H 36400 27716 40  0000 C CNN
F 2 "" H 36400 27600 60  0000 C CNN
F 3 "" H 36400 27600 60  0000 C CNN
	1    36400 27600
	1    0    0    -1  
$EndComp
Text GLabel 36800 27600 2    60   BiDi ~ 0
CONTROL_2_BLU
$Comp
L DIODE D7
U 1 1 58A1AAA3
P 36400 28650
F 0 "D7" H 36400 28842 40  0000 C CNN
F 1 "DIODE" H 36400 28766 40  0000 C CNN
F 2 "" H 36400 28650 60  0000 C CNN
F 3 "" H 36400 28650 60  0000 C CNN
	1    36400 28650
	1    0    0    -1  
$EndComp
Text GLabel 36800 28650 2    60   BiDi ~ 0
CONTROL_1_GRN
$Sheet
S 20100 21650 2850 2650
U 589216A0
F0 "J11 - GATE MATRIX 703495-2" 60
F1 "J11_GateMatrix.sch" 60
F2 "(10)" I L 20100 21850 60 
F3 "(2)" I L 20100 22150 60 
F4 "(9)" I L 20100 22450 60 
F5 "(1)" I L 20100 22800 60 
F6 "(3)" I L 20100 23750 60 
F7 "(7)" I L 20100 23900 60 
F8 "(4)" I L 20100 24050 60 
F9 "(5)" I R 22950 23000 60 
F10 "(6)" I R 22950 22700 60 
F11 "(8)" I R 22950 21950 60 
$EndSheet
Text GLabel 19750 22600 0    60   BiDi ~ 0
CONTROL_2_ORN
Text GLabel 3300 10050 0    60   BiDi ~ 0
GAME_CARD_15
Text GLabel 18900 22150 0    60   BiDi ~ 0
GAME_CARD_15
$Comp
L JUMPER JU11
U 1 1 58941BD3
P 19450 22150
F 0 "JU11" H 19450 22406 60  0000 C CNN
F 1 "JUMPER" H 19450 22315 40  0000 C CNN
F 2 "" H 19450 22150 60  0000 C CNN
F 3 "" H 19450 22150 60  0000 C CNN
	1    19450 22150
	1    0    0    -1  
$EndComp
$Comp
L JUMPER JU1
U 1 1 5894486A
P 18650 22800
F 0 "JU1" H 18650 23056 60  0000 C CNN
F 1 "JUMPER" H 18650 22965 40  0000 C CNN
F 2 "" H 18650 22800 60  0000 C CNN
F 3 "" H 18650 22800 60  0000 C CNN
	1    18650 22800
	1    0    0    -1  
$EndComp
Text GLabel 18150 22800 0    60   BiDi ~ 0
CONTROL_1_RESET
Text GLabel 24100 21950 2    60   BiDi ~ 0
GAME_CARD_13
$Comp
L JUMPER JU5
U 1 1 5894C580
P 23550 21950
F 0 "JU5" H 23550 22206 60  0000 C CNN
F 1 "JUMPER" H 23550 22115 40  0000 C CNN
F 2 "" H 23550 21950 60  0000 C CNN
F 3 "" H 23550 21950 60  0000 C CNN
	1    23550 21950
	-1   0    0    -1  
$EndComp
Text GLabel 24150 22700 2    60   BiDi ~ 0
GAME_CARD_22
$Comp
L JUMPER JU4
U 1 1 5894DCB2
P 23600 22700
F 0 "JU4" H 23600 22956 60  0000 C CNN
F 1 "JUMPER" H 23600 22865 40  0000 C CNN
F 2 "" H 23600 22700 60  0000 C CNN
F 3 "" H 23600 22700 60  0000 C CNN
	1    23600 22700
	-1   0    0    -1  
$EndComp
Text GLabel 7950 10350 2    60   BiDi ~ 0
GAME_CARD_22
Text Notes 23000 22650 0    60   ~ 0
5.6V
Text GLabel 23300 23000 2    60   Input ~ 0
WALL
Text GLabel 18950 23750 0    60   BiDi ~ 0
GAME_CARD_31
$Comp
L JUMPER JU3
U 1 1 5895E051
P 19500 23750
F 0 "JU3" H 19500 24006 60  0000 C CNN
F 1 "JUMPER" H 19500 23915 40  0000 C CNN
F 2 "" H 19500 23750 60  0000 C CNN
F 3 "" H 19500 23750 60  0000 C CNN
	1    19500 23750
	1    0    0    -1  
$EndComp
Text GLabel 18950 23900 0    60   BiDi ~ 0
GAME_CARD_35
Text GLabel 18950 24050 0    60   Input ~ 0
BALL
Text GLabel 18300 15500 1    60   BiDi ~ 0
CONTROL_2_ENGLISH
Text GLabel 18150 15500 1    60   BiDi ~ 0
CONTROL_1_ENGLISH
Text GLabel 13050 11650 2    60   BiDi ~ 0
+5.6V
Text GLabel 11150 11650 0    60   BiDi ~ 0
+5.6V
NoConn ~ 12800 10550
NoConn ~ 11400 10550
Text GLabel 6800 9050 1    60   BiDi ~ 0
CONTROL_2_YEL
Text GLabel 6950 9050 1    60   BiDi ~ 0
CONTROL_1_YEL
Wire Wire Line
	38750 9850 38750 10400
Wire Wire Line
	38750 10150 38900 10150
Connection ~ 38750 10250
Wire Wire Line
	38750 10050 38900 10050
Connection ~ 38750 10150
Wire Wire Line
	38750 9950 38900 9950
Connection ~ 38750 10050
Wire Wire Line
	38750 9850 38900 9850
Connection ~ 38750 9950
Wire Wire Line
	41500 10150 41500 9950
Wire Wire Line
	41500 10700 41500 10550
Wire Wire Line
	42600 8700 42600 10500
Wire Wire Line
	42600 11050 42600 10900
Wire Wire Line
	43250 10950 43250 11050
Wire Wire Line
	42600 10300 43250 10300
Wire Wire Line
	43250 10300 43250 10450
Wire Wire Line
	42600 9750 40950 9750
Connection ~ 42600 10300
Wire Wire Line
	38200 9700 38900 9700
Wire Wire Line
	38200 9600 38200 9900
Wire Wire Line
	43250 9950 43250 9900
Connection ~ 41500 9950
Connection ~ 42600 9750
Wire Wire Line
	42600 8700 43150 8700
Wire Wire Line
	43150 8700 43150 8900
Connection ~ 43250 9950
Wire Wire Line
	38750 10250 38900 10250
Wire Wire Line
	42100 9950 43700 9950
Wire Wire Line
	40950 9950 41800 9950
Connection ~ 38200 9700
Wire Wire Line
	38200 10200 38200 10400
Wire Wire Line
	15500 22500 15800 22500
Wire Wire Line
	24850 16250 25050 16250
Wire Wire Line
	25050 16250 25050 16450
Wire Wire Line
	21800 16000 22000 16000
Wire Wire Line
	21800 16800 22000 16800
Wire Wire Line
	24850 16900 25150 16900
Wire Wire Line
	25150 16900 25150 17050
Wire Wire Line
	24850 17650 25150 17650
Wire Wire Line
	25150 17650 25150 17550
Wire Wire Line
	24850 16600 26250 16600
Wire Wire Line
	25600 16600 25600 16800
Wire Wire Line
	26250 16600 26250 16850
Connection ~ 25600 16600
Wire Wire Line
	25600 17300 25600 17450
Wire Wire Line
	26250 17450 26250 17250
Wire Wire Line
	25050 16000 24850 16000
Wire Wire Line
	12650 23150 12400 23150
Wire Wire Line
	26950 15300 26950 15750
Wire Wire Line
	24850 15550 26950 15550
Wire Wire Line
	26800 16000 26550 16000
Wire Wire Line
	26550 16000 26550 15550
Connection ~ 26550 15550
Connection ~ 26950 15550
Wire Wire Line
	26950 16250 26950 16450
Wire Wire Line
	26950 14650 26950 14800
Wire Wire Line
	26950 16950 26950 17100
Wire Wire Line
	26950 17100 27050 17100
Wire Wire Line
	27150 14650 26950 14650
Wire Wire Line
	22000 16250 21000 16250
Wire Wire Line
	21000 16150 21000 16600
Wire Wire Line
	19800 15500 22000 15500
Wire Wire Line
	21000 15500 21000 15650
Connection ~ 21000 16250
Wire Wire Line
	20350 15500 20350 15750
Wire Wire Line
	20350 16350 20350 16150
Connection ~ 21000 15500
Wire Wire Line
	19800 16900 19800 17350
Wire Wire Line
	19400 17100 19800 17100
Wire Wire Line
	19650 16650 19400 16650
Wire Wire Line
	19400 16650 19400 17100
Connection ~ 19800 17100
Wire Wire Line
	19800 16400 19800 16200
Wire Wire Line
	19800 15350 19800 15700
Connection ~ 20350 15500
Connection ~ 19800 15500
Wire Wire Line
	19700 14750 19800 14750
Wire Wire Line
	19800 14750 19800 14850
Wire Wire Line
	15700 29300 15850 29300
Wire Wire Line
	15850 29150 15850 29500
Wire Wire Line
	15850 29150 15700 29150
Connection ~ 15850 29300
Wire Wire Line
	16000 28600 15700 28600
Wire Wire Line
	11600 28850 11600 29200
Wire Wire Line
	12000 29050 11600 29050
Wire Wire Line
	11750 28600 12000 28600
Wire Wire Line
	12000 28600 12000 29050
Connection ~ 11600 29050
Wire Wire Line
	11600 27950 11600 28350
Wire Wire Line
	11600 28200 12850 28200
Wire Wire Line
	11400 27950 11600 27950
Connection ~ 11600 28200
Wire Wire Line
	11600 29700 11600 30250
Wire Wire Line
	11600 30250 11800 30250
Connection ~ 11600 29900
Wire Wire Line
	12500 29350 12500 30250
Wire Wire Line
	12500 30250 12300 30250
Wire Wire Line
	12500 29350 12850 29350
Connection ~ 12500 29900
Wire Wire Line
	12500 29900 12300 29900
Wire Wire Line
	11600 29900 11800 29900
Wire Wire Line
	22300 29200 22450 29200
Wire Wire Line
	22450 29050 22450 29400
Wire Wire Line
	22450 29050 22300 29050
Connection ~ 22450 29200
Wire Wire Line
	22300 28500 22650 28500
Wire Wire Line
	18200 28750 18200 29600
Wire Wire Line
	18600 28950 18200 28950
Wire Wire Line
	18350 28500 18600 28500
Wire Wire Line
	18600 28500 18600 28950
Connection ~ 18200 28950
Wire Wire Line
	17350 28100 19450 28100
Wire Wire Line
	17150 27350 17350 27350
Connection ~ 18200 28100
Wire Wire Line
	18200 29600 18400 29600
Connection ~ 18200 29250
Wire Wire Line
	18900 29250 19450 29250
Wire Wire Line
	19100 29250 19100 29600
Wire Wire Line
	19100 29600 18900 29600
Connection ~ 19100 29250
Wire Wire Line
	18200 29250 18400 29250
Wire Wire Line
	17350 27350 17350 27500
Wire Wire Line
	17350 28000 17350 28250
Connection ~ 17350 28100
Wire Wire Line
	18200 28100 18200 28250
Wire Wire Line
	17350 28650 17350 28850
Wire Notes Line
	6300 6000 6300 7350
Wire Notes Line
	6300 7350 9300 7350
Wire Notes Line
	9300 7350 9300 6000
Wire Notes Line
	9300 6000 6300 6000
Wire Wire Line
	6100 9750 7950 9750
Wire Wire Line
	25900 28950 25750 28950
Wire Wire Line
	25750 28950 25750 29100
Wire Wire Line
	6100 10050 7150 10050
Wire Wire Line
	6100 9950 7950 9950
Wire Wire Line
	7150 9850 6100 9850
Wire Wire Line
	6500 9050 6500 10350
Connection ~ 6500 9750
Connection ~ 6500 9950
Wire Wire Line
	6100 9650 6500 9650
Connection ~ 6500 9650
Connection ~ 6500 10050
Wire Wire Line
	6500 10250 6100 10250
Wire Wire Line
	6100 10350 7950 10350
Connection ~ 6500 10250
Connection ~ 6500 9550
Wire Wire Line
	25450 29400 25900 29400
Wire Wire Line
	25450 29650 25900 29650
Wire Wire Line
	24850 29400 24450 29400
Wire Wire Line
	24450 29650 24850 29650
Wire Wire Line
	29400 28150 28750 28150
Wire Wire Line
	25650 27500 25900 27500
Wire Wire Line
	19450 28500 19200 28500
Wire Wire Line
	19200 28500 19200 27900
Wire Wire Line
	15800 21850 15500 21850
Wire Wire Line
	15800 22200 15500 22200
Wire Wire Line
	12550 28050 12550 28600
Wire Wire Line
	12550 28600 12850 28600
Wire Wire Line
	5300 10150 4100 10150
Wire Wire Line
	3300 9850 5300 9850
Wire Wire Line
	6100 11050 7150 11050
Wire Wire Line
	14300 16300 14500 16300
Wire Wire Line
	14500 16300 14500 16500
Wire Wire Line
	11250 16050 11450 16050
Wire Wire Line
	11250 16850 11450 16850
Wire Wire Line
	14300 16950 14600 16950
Wire Wire Line
	14600 16950 14600 18750
Wire Wire Line
	15500 16400 18000 16400
Wire Wire Line
	17350 16200 17350 16600
Wire Wire Line
	18000 16200 18000 16650
Connection ~ 17350 16400
Wire Wire Line
	17350 17100 17350 17250
Wire Wire Line
	18000 17250 18000 17050
Wire Wire Line
	14500 16050 14300 16050
Wire Wire Line
	14300 15600 16400 15600
Wire Wire Line
	16250 16050 16000 16050
Wire Wire Line
	16000 16050 16000 15600
Connection ~ 16000 15600
Wire Wire Line
	16400 16300 16400 16500
Wire Wire Line
	16400 17000 16400 17350
Wire Wire Line
	16400 17150 16650 17150
Wire Wire Line
	9300 15550 11450 15550
Wire Wire Line
	10200 15550 10200 15800
Wire Wire Line
	10200 16400 10200 16200
Wire Wire Line
	9500 15550 9500 16350
Wire Wire Line
	9050 15700 9050 15950
Wire Wire Line
	9050 15950 9500 15950
Connection ~ 9500 15550
Wire Wire Line
	8700 15550 8800 15550
Connection ~ 10200 15550
Connection ~ 9850 15550
Wire Wire Line
	8050 15550 8200 15550
Wire Wire Line
	14300 15800 14600 15800
Wire Wire Line
	16400 15600 16400 15800
Wire Wire Line
	16250 18300 16000 18300
Wire Wire Line
	16000 18300 16000 18750
Connection ~ 16000 18750
Wire Wire Line
	16400 18050 16400 17850
Wire Wire Line
	16400 18750 16400 18550
Connection ~ 16400 17150
Wire Wire Line
	14600 18750 16400 18750
Wire Wire Line
	14300 16650 15500 16650
Connection ~ 18000 16400
Wire Wire Line
	17350 15500 17350 15700
Wire Wire Line
	18000 15500 18000 15700
Wire Wire Line
	11250 16300 11450 16300
Wire Wire Line
	9850 15550 9850 15700
Wire Wire Line
	9850 16400 9850 16200
Wire Wire Line
	9500 16350 9000 16350
Connection ~ 9500 15950
Wire Wire Line
	8050 16350 8500 16350
Wire Wire Line
	14600 15800 14600 15400
Wire Wire Line
	4100 10550 5300 10550
Wire Wire Line
	6100 11250 7150 11250
Wire Wire Line
	7150 10850 6100 10850
Wire Wire Line
	6100 10950 7950 10950
Wire Wire Line
	7950 11350 6100 11350
Wire Wire Line
	7150 11450 6100 11450
Wire Wire Line
	12400 22850 12650 22850
Wire Wire Line
	3300 10850 5300 10850
Wire Wire Line
	5050 10850 5050 11250
Wire Wire Line
	3300 11250 5300 11250
Wire Wire Line
	3300 11050 5300 11050
Wire Wire Line
	5200 11050 5200 11150
Wire Wire Line
	4100 11150 5300 11150
Wire Wire Line
	6100 10750 7950 10750
Wire Wire Line
	6250 10750 6250 10950
Connection ~ 6250 10950
Wire Wire Line
	6200 9450 6100 9450
Wire Wire Line
	6650 12300 6650 12100
Wire Wire Line
	6100 10550 6650 10550
Wire Wire Line
	6650 10550 6650 11700
Wire Wire Line
	4750 11350 5300 11350
Wire Wire Line
	33150 16300 33350 16300
Wire Wire Line
	33350 16300 33350 16500
Wire Wire Line
	30100 16050 30300 16050
Wire Wire Line
	30100 16850 30300 16850
Wire Wire Line
	33150 16950 33450 16950
Wire Wire Line
	33450 16950 33450 18750
Wire Wire Line
	36150 16000 36150 16650
Wire Wire Line
	36150 17250 36150 17050
Wire Wire Line
	33350 16050 33150 16050
Wire Wire Line
	33150 15600 35250 15600
Wire Wire Line
	35100 16050 34850 16050
Wire Wire Line
	34850 16050 34850 15600
Connection ~ 34850 15600
Wire Wire Line
	35250 16300 35250 16500
Wire Wire Line
	35250 17000 35250 17350
Wire Wire Line
	35250 17150 35500 17150
Wire Wire Line
	29050 15200 29050 15800
Wire Wire Line
	29050 16400 29050 16200
Wire Wire Line
	33150 15800 33450 15800
Wire Wire Line
	35250 15600 35250 15800
Wire Wire Line
	35100 18300 34850 18300
Wire Wire Line
	34850 18300 34850 18750
Connection ~ 34850 18750
Wire Wire Line
	35250 18050 35250 17850
Wire Wire Line
	35250 18750 35250 18550
Connection ~ 35250 17150
Wire Wire Line
	33450 18750 35250 18750
Wire Wire Line
	33150 16650 34350 16650
Connection ~ 36150 16400
Wire Wire Line
	34350 16650 34350 16400
Wire Wire Line
	30100 16300 30300 16300
Wire Wire Line
	33450 15800 33450 15400
Wire Wire Line
	12400 21850 12650 21850
Wire Wire Line
	12400 22350 12650 22350
Wire Wire Line
	34350 16400 36150 16400
Wire Wire Line
	15500 16650 15500 16400
Wire Notes Line
	15550 23000 15650 23000
Wire Notes Line
	15650 23000 15650 23150
Wire Notes Line
	15650 23150 15800 23150
Wire Notes Line
	15800 23150 15800 23000
Wire Notes Line
	15800 23000 15900 23000
Wire Notes Line
	15900 23000 15900 22750
Wire Notes Line
	15900 22750 16000 22750
Wire Notes Line
	16000 22750 16000 23000
Wire Notes Line
	16000 23000 16050 23000
Wire Notes Line
	16050 23000 16050 22750
Wire Notes Line
	16050 22750 16150 22750
Wire Notes Line
	16150 22750 16150 23000
Wire Notes Line
	16150 23000 16450 23000
Wire Notes Line
	16450 23000 16450 22750
Wire Notes Line
	16450 22750 16550 22750
Wire Notes Line
	16550 22750 16550 23000
Wire Notes Line
	16550 23000 16600 23000
Wire Notes Line
	16600 23000 16600 22750
Wire Notes Line
	16600 22750 16700 22750
Wire Notes Line
	16700 22750 16700 23000
Wire Notes Line
	16700 23000 16800 23000
Wire Notes Line
	16800 23000 16800 23150
Wire Notes Line
	16800 23150 16950 23150
Wire Notes Line
	16950 23150 16950 23000
Wire Notes Line
	16950 23000 17050 23000
Wire Wire Line
	29050 15550 30300 15550
Connection ~ 29050 15550
Wire Wire Line
	41300 16350 41500 16350
Wire Wire Line
	41500 16350 41500 16550
Wire Wire Line
	38050 16100 38450 16100
Wire Wire Line
	38050 16900 38450 16900
Wire Wire Line
	41300 17000 41600 17000
Wire Wire Line
	41600 17000 41600 18800
Wire Wire Line
	44300 16200 44300 16700
Wire Wire Line
	44300 17300 44300 17100
Wire Wire Line
	41500 16100 41300 16100
Wire Wire Line
	41300 15650 43400 15650
Wire Wire Line
	43250 16100 43000 16100
Wire Wire Line
	43000 16100 43000 15650
Connection ~ 43000 15650
Wire Wire Line
	43400 16350 43400 16550
Wire Wire Line
	43400 17050 43400 17400
Wire Wire Line
	43400 17200 43650 17200
Wire Wire Line
	37000 15250 37000 15850
Wire Wire Line
	37000 16450 37000 16250
Wire Wire Line
	41300 15850 41600 15850
Wire Wire Line
	43400 15650 43400 15850
Wire Wire Line
	43250 18350 43000 18350
Wire Wire Line
	43000 18350 43000 18800
Connection ~ 43000 18800
Wire Wire Line
	43400 18100 43400 17900
Wire Wire Line
	43400 18800 43400 18600
Connection ~ 43400 17200
Wire Wire Line
	41600 18800 43400 18800
Wire Wire Line
	41300 16700 42500 16700
Connection ~ 44300 16450
Wire Wire Line
	42500 16450 42500 16850
Wire Wire Line
	38250 16350 38450 16350
Wire Wire Line
	41600 15850 41600 15450
Wire Wire Line
	42500 16450 44300 16450
Wire Wire Line
	37000 15600 38450 15600
Connection ~ 37000 15600
Wire Wire Line
	37950 16350 37850 16350
Wire Wire Line
	38200 16000 38200 16100
Connection ~ 38200 16100
Wire Wire Line
	38200 16800 38200 16900
Connection ~ 38200 16900
Wire Wire Line
	5300 10350 4100 10350
Connection ~ 42500 16700
Wire Wire Line
	42500 17450 42500 17750
Wire Wire Line
	5300 9550 4100 9550
Wire Wire Line
	13100 10300 13100 10650
Wire Wire Line
	13100 10650 12800 10650
Wire Wire Line
	13250 10300 13250 10950
Wire Wire Line
	13250 10950 12800 10950
Wire Wire Line
	12800 10750 12950 10750
Wire Wire Line
	12950 10750 12950 11850
Wire Wire Line
	13400 10300 13400 11050
Wire Wire Line
	13400 11050 12800 11050
Wire Wire Line
	13550 10300 13550 11550
Wire Wire Line
	13550 11550 12800 11550
Wire Wire Line
	13950 10300 13950 10850
Wire Wire Line
	13950 10850 12800 10850
Wire Wire Line
	14100 10300 14100 11450
Wire Wire Line
	14100 11450 12800 11450
Wire Wire Line
	14250 10300 14250 11350
Wire Wire Line
	14250 11350 12800 11350
Wire Wire Line
	14550 10300 14550 11250
Wire Wire Line
	14550 11250 12800 11250
Wire Wire Line
	14700 10300 14700 11150
Wire Wire Line
	14700 11150 12800 11150
Wire Wire Line
	11100 10300 11100 10650
Wire Wire Line
	11100 10650 11400 10650
Wire Wire Line
	10950 10300 10950 10950
Wire Wire Line
	10950 10950 11400 10950
Wire Wire Line
	11400 10750 11250 10750
Wire Wire Line
	11250 10750 11250 11850
Wire Wire Line
	10800 10300 10800 11050
Wire Wire Line
	10800 11050 11400 11050
Wire Wire Line
	10650 10300 10650 11550
Wire Wire Line
	10650 11550 11400 11550
Wire Wire Line
	10250 10300 10250 10850
Wire Wire Line
	10250 10850 11400 10850
Wire Wire Line
	10100 10300 10100 11450
Wire Wire Line
	10100 11450 11400 11450
Wire Wire Line
	9950 10300 9950 11350
Wire Wire Line
	9950 11350 11400 11350
Wire Wire Line
	9650 10300 9650 11250
Wire Wire Line
	9650 11250 11400 11250
Wire Wire Line
	9500 10300 9500 11150
Wire Wire Line
	9500 11150 11400 11150
Wire Wire Line
	16900 11100 17000 11100
Wire Wire Line
	17000 11100 17000 11550
Wire Wire Line
	18000 11950 18000 12050
Wire Wire Line
	18000 8750 18000 11550
Wire Wire Line
	18000 10900 16900 10900
Wire Wire Line
	18600 10400 18600 10250
Wire Wire Line
	18600 10250 18000 10250
Connection ~ 18000 10900
Wire Wire Line
	18600 10800 18600 10950
Wire Wire Line
	18650 11950 18650 12050
Wire Wire Line
	16900 11400 19450 11400
Wire Wire Line
	18650 11400 18650 11550
Wire Wire Line
	19150 11400 19150 11550
Connection ~ 18650 11400
Wire Wire Line
	19150 12050 19150 11950
Connection ~ 19150 11400
Wire Wire Line
	19650 10300 19650 10150
Wire Wire Line
	19650 8900 19650 9650
Wire Wire Line
	19200 9500 20150 9500
Wire Wire Line
	20150 9300 20150 11400
Wire Wire Line
	20150 11400 19950 11400
Connection ~ 20150 9500
Connection ~ 19650 9500
Wire Wire Line
	19050 8600 19050 8700
Wire Wire Line
	19050 8200 19050 8050
Wire Wire Line
	19650 8050 19650 8400
Connection ~ 19050 8050
Wire Wire Line
	18900 10600 21450 10600
Wire Wire Line
	20950 10600 20950 10400
Wire Wire Line
	21450 10600 21450 10400
Connection ~ 20950 10600
Wire Wire Line
	18100 8950 18000 8950
Connection ~ 18000 10250
Wire Wire Line
	18000 8750 17850 8750
Connection ~ 18000 8950
Wire Wire Line
	17450 11950 17450 12050
Wire Wire Line
	16900 11200 17450 11200
Wire Wire Line
	17450 10650 17450 11550
Connection ~ 17450 11200
Wire Wire Line
	7150 10450 6100 10450
Wire Wire Line
	3300 10250 5300 10250
Wire Wire Line
	18800 8050 19650 8050
Wire Wire Line
	20150 8600 20150 8800
Wire Wire Line
	20200 8050 20150 8050
Wire Wire Line
	20150 7700 20150 8200
Wire Wire Line
	20150 7700 20000 7700
Connection ~ 20150 8050
Wire Wire Line
	20800 7500 20000 7500
Wire Wire Line
	20950 10000 20950 9150
Wire Wire Line
	21450 10000 21450 9150
Wire Wire Line
	20700 8050 20800 8050
Wire Wire Line
	20800 8050 20800 7500
Wire Wire Line
	7950 10150 6100 10150
Wire Wire Line
	4100 10950 5300 10950
Wire Wire Line
	18600 8950 19050 8950
Wire Wire Line
	19050 8950 19050 9200
Wire Wire Line
	19050 9750 19050 9600
Wire Wire Line
	36200 27600 36050 27600
Wire Wire Line
	36200 28650 36050 28650
Wire Wire Line
	33200 28900 33050 28900
Wire Wire Line
	33050 28900 33050 29050
Wire Wire Line
	33050 28200 33200 28200
Wire Wire Line
	33200 29350 32450 29350
Wire Wire Line
	32450 29600 33200 29600
Wire Wire Line
	36700 28100 36050 28100
Wire Wire Line
	32950 27450 33200 27450
Wire Wire Line
	32450 28200 32650 28200
Wire Wire Line
	33050 28650 33200 28650
Wire Wire Line
	32450 28650 32650 28650
Wire Wire Line
	36800 27600 36600 27600
Wire Wire Line
	36800 28650 36600 28650
Wire Wire Line
	19750 22150 20100 22150
Wire Wire Line
	19900 21850 20100 21850
Wire Wire Line
	19750 22450 20100 22450
Wire Wire Line
	3300 10050 5300 10050
Wire Wire Line
	18900 22150 19150 22150
Wire Wire Line
	18950 22800 20100 22800
Wire Wire Line
	18350 22800 18150 22800
Wire Wire Line
	22950 21950 23250 21950
Wire Wire Line
	24100 21950 23850 21950
Wire Wire Line
	24150 22700 23900 22700
Wire Wire Line
	22950 22700 23300 22700
Connection ~ 6500 10350
Wire Wire Line
	23300 23000 22950 23000
Wire Wire Line
	20100 23750 19800 23750
Wire Wire Line
	18950 23750 19200 23750
Wire Wire Line
	18950 23900 20100 23900
Wire Wire Line
	18950 24050 20100 24050
Wire Wire Line
	18150 15600 18150 15500
Wire Wire Line
	18000 15600 18300 15600
Wire Wire Line
	18300 15600 18300 15500
Connection ~ 18150 15600
Connection ~ 18000 15600
Wire Wire Line
	13050 11650 12800 11650
Wire Wire Line
	11150 11650 11400 11650
Wire Wire Line
	6800 9050 6800 11150
Connection ~ 6800 9150
Text GLabel 3300 10850 0    60   BiDi ~ 0
GAME_CARD_31
Text GLabel 3300 11050 0    60   BiDi ~ 0
GAME_CARD_35
Connection ~ 5200 11050
Connection ~ 5050 10850
Wire Wire Line
	19900 21850 19900 22150
Connection ~ 19900 22150
Text GLabel 18900 22000 0    60   BiDi ~ 0
CONTROL_2_RESET
Wire Wire Line
	18900 22000 19000 22000
Wire Wire Line
	19000 22000 19000 22150
Connection ~ 19000 22150
Text GLabel 4100 9950 0    60   BiDi ~ 0
GAME_CARD_13
Wire Wire Line
	4100 9950 5300 9950
Text GLabel 3300 10650 0    60   BiDi ~ 0
GAME_CARD_27
Wire Wire Line
	3300 10650 5300 10650
Text GLabel 5150 9050 1    60   BiDi ~ 0
CONTROL_1_ORN
Wire Wire Line
	5300 9750 5150 9750
Wire Wire Line
	5150 9750 5150 9050
Text GLabel 7950 10750 2    60   BiDi ~ 0
GAME_CARD_30
Connection ~ 6250 10750
Text GLabel 19750 22450 0    60   BiDi ~ 0
MATRIX_9
Wire Wire Line
	19750 22600 19900 22600
Wire Wire Line
	19900 22600 19900 22450
Connection ~ 19900 22450
Text GLabel 32450 29350 0    60   BiDi ~ 0
CONTROL_1_RESET
Text GLabel 3300 10450 0    60   BiDi ~ 0
GAME_CARD_23
Wire Wire Line
	3300 10450 5300 10450
Wire Wire Line
	5300 10750 4950 10750
Wire Wire Line
	4950 10750 4950 9050
Wire Wire Line
	6800 11150 6100 11150
Wire Wire Line
	6950 9150 6950 9050
Wire Wire Line
	6800 9150 6950 9150
Wire Wire Line
	7200 9550 7200 9050
Wire Wire Line
	6100 9550 7200 9550
$Comp
L CAPAPOL C2
U 1 1 589E94E0
P 4500 11900
F 0 "C2" H 4609 11938 40  0000 L CNN
F 1 "47 MFD 16V" H 4609 11862 40  0000 L CNN
F 2 "" H 4600 11750 30  0000 C CNN
F 3 "" H 4500 11900 300 0000 C CNN
	1    4500 11900
	1    0    0    -1  
$EndComp
$Comp
L GND #PWR039
U 1 1 589E94E6
P 4500 12300
F 0 "#PWR039" H 4500 12300 30  0001 C CNN
F 1 "GND" H 4500 12230 30  0001 C CNN
F 2 "" H 4500 12300 60  0001 C CNN
F 3 "" H 4500 12300 60  0001 C CNN
	1    4500 12300
	1    0    0    -1  
$EndComp
Wire Wire Line
	4500 12300 4500 12100
Wire Wire Line
	4500 11700 4500 9450
Wire Wire Line
	4500 9450 5300 9450
Text GLabel 11650 22000 0    60   BiDi ~ 0
GAME_CARD_37
Wire Wire Line
	12650 22000 11650 22000
Text GLabel 4100 11150 0    60   BiDi ~ 0
GAME_CARD_37
Connection ~ 5200 11150
Text GLabel 11650 22500 0    60   BiDi ~ 0
GAME_CARD_39
Wire Wire Line
	11650 22500 12650 22500
Text GLabel 3300 11250 0    60   BiDi ~ 0
GAME_CARD_39
Connection ~ 5050 11250
$Comp
L NPN Q1
U 1 1 58A0FBDB
P 24800 9400
F 0 "Q1" H 24990 9446 50  0000 L CNN
F 1 "142N9" H 24990 9355 50  0000 L CNN
F 2 "" H 24800 9400 60  0000 C CNN
F 3 "" H 24800 9400 60  0000 C CNN
	1    24800 9400
	1    0    0    1   
$EndComp
$Comp
L TST TP1
U 1 1 58A10D6F
P 24900 8500
F 0 "TP1" H 24700 8650 40  0000 L CNN
F 1 "5.6V" H 24750 8550 30  0000 L CNN
F 2 "" H 24900 8500 60  0000 C CNN
F 3 "" H 24900 8500 60  0000 C CNN
	1    24900 8500
	-1   0    0    -1  
$EndComp
Wire Wire Line
	24900 8500 24900 9200
$Comp
L CAPAPOL C15
U 1 1 58A149C7
P 24900 11450
F 0 "C15" H 25009 11488 40  0000 L CNN
F 1 "470 MFD 16V" H 25009 11412 40  0000 L CNN
F 2 "" H 25000 11300 30  0000 C CNN
F 3 "" H 24900 11450 300 0000 C CNN
	1    24900 11450
	1    0    0    -1  
$EndComp
$Comp
L GND #PWR040
U 1 1 58A149CD
P 24900 12000
F 0 "#PWR040" H 24900 12000 30  0001 C CNN
F 1 "GND" H 24900 11930 30  0001 C CNN
F 2 "" H 24900 12000 60  0001 C CNN
F 3 "" H 24900 12000 60  0001 C CNN
	1    24900 12000
	1    0    0    -1  
$EndComp
Wire Wire Line
	24900 11650 24900 12000
Wire Wire Line
	25700 8600 25700 9100
Wire Wire Line
	24700 8600 25700 8600
$Comp
L FERRITE FB3
U 1 1 58A1576F
P 26100 8950
F 0 "FB3" H 26100 9165 50  0000 C CNN
F 1 "FERRITE" H 26100 9074 50  0000 C CNN
F 2 "" H 26100 8850 60  0000 C CNN
F 3 "" H 26100 8850 60  0000 C CNN
	1    26100 8950
	1    0    0    -1  
$EndComp
Wire Wire Line
	25950 8950 25700 8950
Connection ~ 25700 8950
Wire Wire Line
	26250 8950 26450 8950
NoConn ~ 26450 8950
$Comp
L CP1 C13
U 1 1 58A189A7
P 24350 10550
F 0 "C13" H 24483 10596 50  0000 L CNN
F 1 ".01" H 24483 10505 50  0000 L CNN
F 2 "" H 24350 10550 60  0000 C CNN
F 3 "" H 24350 10550 60  0000 C CNN
	1    24350 10550
	-1   0    0    -1  
$EndComp
$Comp
L GND #PWR041
U 1 1 58A189AD
P 24350 10850
F 0 "#PWR041" H 24350 10850 30  0001 C CNN
F 1 "GND" H 24350 10780 30  0001 C CNN
F 2 "" H 24350 10850 60  0001 C CNN
F 3 "" H 24350 10850 60  0001 C CNN
	1    24350 10850
	-1   0    0    -1  
$EndComp
$Comp
L ZENER Z1
U 1 1 58A189B3
P 23850 9650
F 0 "Z1" V 23888 9571 50  0000 R CNN
F 1 "6.2V" V 23804 9571 40  0000 R CNN
F 2 "" H 23850 9650 60  0000 C CNN
F 3 "" H 23850 9650 60  0000 C CNN
	1    23850 9650
	0    1    -1   0   
$EndComp
$Comp
L GND #PWR042
U 1 1 58A189B9
P 23850 9950
F 0 "#PWR042" H 23850 9950 30  0001 C CNN
F 1 "GND" H 23850 9880 30  0001 C CNN
F 2 "" H 23850 9950 60  0001 C CNN
F 3 "" H 23850 9950 60  0001 C CNN
	1    23850 9950
	-1   0    0    -1  
$EndComp
Wire Wire Line
	24350 10750 24350 10850
Wire Wire Line
	23850 9950 23850 9850
$Comp
L R R45
U 1 1 58A193B0
P 24350 9850
F 0 "R45" H 24279 9812 40  0000 R CNN
F 1 "1.5k" H 24279 9888 40  0000 R CNN
F 2 "" V 24280 9850 30  0000 C CNN
F 3 "" H 24350 9850 30  0000 C CNN
	1    24350 9850
	-1   0    0    1   
$EndComp
Wire Wire Line
	23850 9400 24600 9400
Wire Wire Line
	24350 9400 24350 9600
Wire Wire Line
	24350 10100 24350 10350
Wire Wire Line
	24900 11150 24150 11150
Wire Wire Line
	24350 10200 24900 10200
Wire Wire Line
	24900 9600 24900 11250
Connection ~ 24350 10200
Wire Wire Line
	23850 9450 23850 9400
Connection ~ 24350 9400
Text GLabel 24150 11150 0    60   Input ~ 0
5.6V_REGULATOR_IN
Connection ~ 24900 8600
Text GLabel 24700 8600 0    60   BiDi ~ 0
+5.6V
Wire Wire Line
	27650 10150 27650 10050
Wire Wire Line
	27250 10150 27650 10150
Connection ~ 24900 11800
Connection ~ 24900 11150
Connection ~ 24900 10200
$Comp
L CAPAPOL C14
U 1 1 58A35892
P 25700 9300
F 0 "C14" H 25809 9338 40  0000 L CNN
F 1 "470 MFD 16V" H 25809 9262 40  0000 L CNN
F 2 "" H 25800 9150 30  0000 C CNN
F 3 "" H 25700 9300 300 0000 C CNN
	1    25700 9300
	1    0    0    -1  
$EndComp
$Comp
L GND #PWR043
U 1 1 58A35898
P 25700 9650
F 0 "#PWR043" H 25700 9650 30  0001 C CNN
F 1 "GND" H 25700 9580 30  0001 C CNN
F 2 "" H 25700 9650 60  0001 C CNN
F 3 "" H 25700 9650 60  0001 C CNN
	1    25700 9650
	1    0    0    -1  
$EndComp
Wire Wire Line
	25700 9500 25700 9650
Text Notes 26000 8650 0    60   ~ 0
REG\n+5.6V
Text Notes 26500 9000 0    60   ~ 0
(?!)
NoConn ~ 4750 11350
Text Notes 4700 11500 0    60   ~ 0
W3 (?!)
Wire Wire Line
	6200 9150 6200 9450
Wire Wire Line
	6200 9350 6100 9350
Connection ~ 6200 9350
$Comp
L +9V #PWR044
U 1 1 58A4DF99
P 6200 9150
F 0 "#PWR044" H 6200 9120 20  0001 C CNN
F 1 "+9V" H 6200 9288 30  0000 C CNN
F 2 "" H 6200 9150 60  0001 C CNN
F 3 "" H 6200 9150 60  0001 C CNN
	1    6200 9150
	1    0    0    -1  
$EndComp
Wire Wire Line
	28700 10200 28700 10550
Wire Wire Line
	27250 10400 28700 10400
$Comp
L JACK_2P J1
U 1 1 58A59C07
P 26800 10250
F 0 "J1" H 26322 10227 60  0000 R CNN
F 1 "POWER_JACK" H 26322 10333 60  0000 R CNN
F 2 "" H 26800 10250 60  0000 C CNN
F 3 "" H 26800 10250 60  0000 C CNN
	1    26800 10250
	1    0    0    1   
$EndComp
$Comp
L GND #PWR045
U 1 1 58A5A715
P 28700 10550
F 0 "#PWR045" H 28700 10550 30  0001 C CNN
F 1 "GND" H 28700 10480 30  0001 C CNN
F 2 "" H 28700 10550 60  0001 C CNN
F 3 "" H 28700 10550 60  0001 C CNN
	1    28700 10550
	1    0    0    -1  
$EndComp
$Comp
L +9V #PWR046
U 1 1 58A5ADA0
P 27400 9950
F 0 "#PWR046" H 27400 9920 20  0001 C CNN
F 1 "+9V" H 27400 10088 30  0000 C CNN
F 2 "" H 27400 9950 60  0001 C CNN
F 3 "" H 27400 9950 60  0001 C CNN
	1    27400 9950
	1    0    0    -1  
$EndComp
Wire Wire Line
	27400 9950 27400 10150
Connection ~ 27400 10150
$Comp
L JUMPER BATT1
U 1 1 58A67E22
P 28100 10250
F 0 "BATT1" H 28100 10506 60  0000 C CNN
F 1 "JUMPER" H 28100 10415 40  0000 C CNN
F 2 "" H 28100 10250 60  0000 C CNN
F 3 "" H 28100 10250 60  0000 C CNN
	1    28100 10250
	1    0    0    -1  
$EndComp
Wire Wire Line
	28400 10250 28500 10250
Wire Wire Line
	28500 10250 28500 10400
Wire Wire Line
	27800 10250 27250 10250
Connection ~ 28500 10400
Connection ~ 28700 10400
Text Notes 8250 2450 0    787  ~ 0
MAGNAVOX ODYSSEY 1TL200BLAK SCHEMATIC DIAGRAM
Text Notes 11950 3750 0    591  ~ 0
Scanned from original service manual by David WINTER
Text Notes 10600 4950 0    472  ~ 0
Redrawn on KICAD by Felipe Corrêa da Silva Sanches <juca@members.fsf.org>
$EndSCHEMATC
